! Generated by PyFraME
@COORDINATES
12
AA
N      3.32600000     1.54800000    -0.00000000       1
H      3.90900000     0.72400000    -0.00000000       2
C      3.97000000     2.84600000    -0.00000000       3
H      3.67200000     3.40000000    -0.89000000       4
C      3.57700000     3.65400000     1.23200000       5
H      2.49700000     3.80100000     1.24100000       6
H      3.87700000     3.11600000     2.13100000       7
C      4.27500000     5.01100000     1.19500000       8
O      3.66900000     5.95500000     0.62000000       9
O      5.40800000     5.09200000     1.74100000      10
C      5.48600000     2.70500000    -0.00000000      11
O      6.00900000     1.59300000    -0.00000000      12
@MULTIPOLES
ORDER 0
12
1      -0.57922177
2       0.30832420
3       0.13454993
4       0.07841253
5      -0.20895990
6       0.01397654
7       0.01397654
8       0.85772617
9      -0.77838768
10     -0.77838768
11      0.42723932
12     -0.48924820
@POLARIZABILITIES
ORDER 1 1
12
1       7.35659916     0.00000000     0.00000000     7.35659916     0.00000000     7.35659916
2       1.15037357     0.00000000     0.00000000     1.15037357     0.00000000     1.15037357
3       9.04673014     0.00000000     0.00000000     9.04673014     0.00000000     9.04673014
4       1.46957526     0.00000000     0.00000000     1.46957526     0.00000000     1.46957526
5       9.94089623     0.00000000     0.00000000     9.94089623     0.00000000     9.94089623
6       1.42448394     0.00000000     0.00000000     1.42448394     0.00000000     1.42448394
7       1.42448394     0.00000000     0.00000000     1.42448394     0.00000000     1.42448394
8      10.29218837     0.00000000     0.00000000    10.29218837     0.00000000    10.29218837
9       6.92846672     0.00000000     0.00000000     6.92846672     0.00000000     6.92846672
10      6.92846672     0.00000000     0.00000000     6.92846672     0.00000000     6.92846672
11      8.50771353     0.00000000     0.00000000     8.50771353     0.00000000     8.50771353
12      5.78489033     0.00000000     0.00000000     5.78489033     0.00000000     5.78489033
EXCLISTS
12 12
1     2   3   4   5   6   7   8   9  10  11  12
2     1   3   4   5   6   7   8   9  10  11  12
3     1   2   4   5   6   7   8   9  10  11  12
4     1   2   3   5   6   7   8   9  10  11  12
5     1   2   3   4   6   7   8   9  10  11  12
6     1   2   3   4   5   7   8   9  10  11  12
7     1   2   3   4   5   6   8   9  10  11  12
8     1   2   3   4   5   6   7   9  10  11  12
9     1   2   3   4   5   6   7   8  10  11  12
10    1   2   3   4   5   6   7   8   9  11  12
11    1   2   3   4   5   6   7   8   9  10  12
12    1   2   3   4   5   6   7   8   9  10  11
