AA
3 -1 2 1
1     0.0000000000     1.5000000000     0.0000000000     0.5578060023    -0.0000000000    -0.0000000000     0.4821892154     0.0000000000     0.5973768948
1     0.7840000000     2.0540000000     0.0000000000     0.2640963227     0.1693776897    -0.0000000000     0.1721762889    -0.0000000000     0.0769156574
1    -0.7840000000     2.0540000000     0.0000000000     0.2640963227    -0.1693776897    -0.0000000000     0.1721762889     0.0000000000     0.0769156574


---------------
Atomic domain 1
---------------
Domain center:            0.00000     1.50000     0.00000
Nuclear charge:           8.00000
Isotropic polarizablity (w=0)     0.54579
Electronic polarizability (w=0)     0.55781    -0.00000     0.48219    -0.00000     0.00000     0.59738

---------------
Atomic domain 2
---------------
Domain center:            0.78400     2.05400     0.00000
Nuclear charge:           1.00000
Isotropic polarizablity (w=0)     0.17106
Electronic polarizability (w=0)     0.26410     0.16938     0.17218    -0.00000    -0.00000     0.07692

---------------
Atomic domain 3
---------------
Domain center:           -0.78400     2.05400     0.00000
Nuclear charge:           1.00000
Isotropic polarizablity (w=0)     0.17106
Electronic polarizability (w=0)     0.26410    -0.16938     0.17218    -0.00000     0.00000     0.07692

---------
Molecular
---------
Domain center:            0.00000     1.61080     0.00000
Nuclear charge:          10.00000
Polarizability av (0)        0.88792
Polarizability (0)           1.08600    -0.00000     0.82654    -0.00000     0.00000     0.75121
Time used in Loprop              :      0.03 (cpu)       0.03 (wall)
