! Generated by PyFraME
@COORDINATES
17
AA
N      3.59900000     1.61900000     1.13600000       1
H      4.35800000     0.94800000     0.93000000       2
H      2.88400000     1.51300000     0.41900000       3
H      3.17900000     1.39600000     2.03500000       4
C      4.22000000     2.95700000     1.11100000       5
H      3.57300000     3.66200000     0.59800000       6
H      4.36600000     3.29700000     2.13500000       7
C      5.57000000     2.80500000     0.42800000       8
O      6.00500000     1.67000000     0.21400000       9
N      6.20600000     3.92300000     0.13200000      10
H      5.79000000     4.83100000     0.33300000      11
C      7.52800000     3.93200000    -0.44300000      12
H      8.20300000     3.31100000     0.15100000      13
H      7.51300000     3.51100000    -1.45300000      14
C      8.10100000     5.35100000    -0.51700000      15
O      7.38700000     6.28300000    -0.09000000      16
O      9.24600000     5.43600000    -1.00800000      17
@POLARIZABILITIES
ORDER 1 1
17
1       3.66319910     2.56590433    -0.19768050     6.04680806    -0.59794072     2.40729646
2       0.15787650    -0.86539002     0.07765133     2.14884341     0.14227252     0.10153135
3       1.70150952     0.43892233     1.30196293     0.26639774     0.36693749     1.23306253
4       0.84766630     0.42927650    -1.16151628     0.42142510    -0.73010828     2.14378016
5       9.63861492     2.09385766    -2.58746396     6.46559649    -0.47418954     4.91455615
6       1.97604406    -1.58998698     0.95093492     1.78966479    -0.94708093     0.91108045
7       0.35312462     0.04376231     0.13443727     0.66810903     1.14830879     3.71092445
8      10.18729150     3.02686384    -3.08956681     9.48207207    -1.30614017     5.01257239
9       1.55544962    -1.90875196    -0.24253671     5.57068106     0.94660043     1.16072572
10      9.12954619     4.43101026    -3.39273997     6.65173205    -2.04746215     2.69903575
11      1.20566792    -1.29998458    -0.42885480     1.46687847     0.49411715     0.40049760
12      9.61327103     3.24199474    -2.21017889     7.47605151    -0.94550056     4.95529218
13      2.23199360    -1.46056083     1.34132731     1.42166160    -1.01992684     1.27874140
14      0.37201071    -0.09821235    -0.29053427     0.84278620     1.37101145     4.01492868
15      8.60939594     1.76529337    -1.66815872     9.71411674    -0.10109742     5.09398222
16      1.88019905    -2.28032504    -0.65720577     4.94698853     1.47683067     1.57335535
17      6.93333714     0.93260576    -2.45800495     1.05098750    -0.41929299     2.14373214
EXCLISTS
17 17
1     2   3   4   5   6   7   8   9  10  11  12  13  14   0   0   0
2     1   3   4   5   6   7   8   9  10  11  12  13  14   0   0   0
3     1   2   4   5   6   7   8   9  10  11  12  13  14   0   0   0
4     1   2   3   5   6   7   8   9  10  11  12  13  14   0   0   0
5     1   2   3   4   6   7   8   9  10  11  12  13  14  15  16  17
6     1   2   3   4   5   7   8   9  10  11  12  13  14  15  16  17
7     1   2   3   4   5   6   8   9  10  11  12  13  14  15  16  17
8     1   2   3   4   5   6   7   9  10  11  12  13  14  15  16  17
9     1   2   3   4   5   6   7   8  10  11  12  13  14  15  16  17
10    1   2   3   4   5   6   7   8   9  11  12  13  14  15  16  17
11    1   2   3   4   5   6   7   8   9  10  12  13  14  15  16  17
12    1   2   3   4   5   6   7   8   9  10  11  13  14  15  16  17
13    1   2   3   4   5   6   7   8   9  10  11  12  14  15  16  17
14    1   2   3   4   5   6   7   8   9  10  11  12  13  15  16  17
15    5   6   7   8   9  10  11  12  13  14  16  17   0   0   0   0
16    5   6   7   8   9  10  11  12  13  14  15  17   0   0   0   0
17    5   6   7   8   9  10  11  12  13  14  15  16   0   0   0   0
