AA
12 2 2 1
1    -7.4690000000     5.8780000000     1.7470000000    -0.3241166656    -0.1303757882     0.0150456416    -0.2136762317    -2.5605626130    -0.0595109278    -0.0764341509    -4.1789325735     0.1541860243    -2.6252287140     1.2301618067    -0.0745382265    -0.4441825028     0.2762111989     0.0636406770     0.9306117443
1    -8.9320000000     5.9610000000     1.7920000000    -0.3310942140     0.2473231624    -0.0191397226    -0.0326409575    -2.6948483313    -0.0480113422    -0.0444312185    -3.3606841707    -0.0118918964    -3.2723706410     1.3046352929    -0.0477623098    -0.1610844314     0.6914966236     0.0077187119     0.6372441069
1    -6.9420000000     5.9660000000     2.5660000000     0.2745018469    -0.1230473691    -0.0206917810    -0.1991299145    -0.4198649320     0.0228912690     0.2083092222    -0.5050627073     0.0325303063    -0.1922475497     0.1745887791     0.0165650111     0.1481404806     0.0938419832     0.0292205685     0.3801788295
1    -9.3650000000     5.1410000000     1.2450000000     0.1650343843     0.1327038028     0.2516820137     0.1624762283    -0.4690019109     0.1867569061     0.1283463503    -0.2225274180     0.2419971219    -0.4173216644     0.2400117089     0.2066856188     0.1155859486     0.3753375597     0.1628886744     0.1528768808
1    -9.2873350000     6.8563320000     1.3261480000     0.1592087729     0.1085184958    -0.2750638751     0.1350994832    -0.5159832367    -0.1573524862     0.0906186049    -0.1627575750    -0.2261085745    -0.4785514689     0.2046225069    -0.2016914921     0.0814015145     0.4557376830    -0.1550284845     0.1297186521
1    -9.2710380000     5.9105650000     2.8056120000     0.1535699072     0.0960183364     0.0121509791    -0.3194728446    -0.5564691365     0.0059223857    -0.2007189742    -0.6059334617    -0.0274047599    -0.0147704368     0.1867041799     0.0062105457    -0.2209572718     0.0786681378    -0.0197817678     0.5768726061
1    -6.8430000000     5.7670000000     0.5760000000     0.3868625716    -0.0833559717    -0.0158587692    -0.0458043684    -2.1096853243    -0.0303783714     0.1665562862    -3.5859564696     0.1586328858    -1.7203248023     1.4022626243    -0.0552276384    -0.2197105494     0.5863935499     0.0642558200     1.2630661285
1    -5.3240000000     5.6990000000     0.6080000000    -0.4880796045    -0.1600468073    -0.0003238245    -0.0461222825    -3.1727394666     0.0200627642     0.0337295240    -3.4261578225     0.0178280694    -3.3869101816     1.4093250011    -0.0307630551    -0.0348074815     0.7117589901     0.0067288195     0.6803875451
1    -7.4460000000     5.6840000000    -0.5000000000    -0.4863386813     0.2614264721     0.0353589195     0.4682832076    -3.9205828996     0.0408441247     0.3974258949    -3.8616881486     0.0404600682    -3.3779335999     0.4068750906     0.0219933755     0.2927599012     0.2452592730     0.0531585955     0.9136886702
1    -4.9305490000     6.4120390000     1.3020250000     0.1482247715    -0.1283586487    -0.2259158602    -0.2329624153    -0.5274177558     0.1632767601     0.1698740386    -0.3176216703     0.2900498143    -0.3415010373     0.2515609972     0.1756273176     0.1661479795     0.3149200421     0.2178874082     0.2815826934
1    -5.0342910000     4.7044040000     0.8758570000     0.1664845193    -0.0947932766     0.3108127591    -0.0913629673    -0.5570584218    -0.1655339607     0.0482554102    -0.0083323242    -0.1565308794    -0.5522626227     0.1884320968    -0.2027853353     0.0512329141     0.5398147193    -0.1129496486     0.1013849187
1    -4.9440000000     5.9270000000    -0.3580000000     0.1757423917    -0.1234094047    -0.0720533179     0.3073399022    -0.4997092759     0.0534950615    -0.2225650862    -0.5519312428    -0.1312900156    -0.0312495440     0.2320401153     0.0507248863    -0.2438825553     0.0934301021    -0.0992083889     0.5096002451


---------------
Atomic domain 1
---------------
Domain center:           -7.46900     5.87800     1.74700
Nuclear charge:           7.00000
Electronic charge:       -7.32412
Total charge:            -0.32412
Electronic dipole        -0.13038     0.01505    -0.21368
Electronic dipole norm     0.25076
Electronic quadrupole    -2.56056    -0.05951    -0.07643    -4.17893     0.15419    -2.62523
Isotropic polarizablity (w=0)     0.81233
Electronic polarizability (w=0)     1.23016    -0.07454     0.27621    -0.44418     0.06364     0.93061

---------------
Atomic domain 2
---------------
Domain center:           -8.93200     5.96100     1.79200
Nuclear charge:           6.00000
Electronic charge:       -6.33109
Total charge:            -0.33109
Electronic dipole         0.24732    -0.01914    -0.03264
Electronic dipole norm     0.25020
Electronic quadrupole    -2.69485    -0.04801    -0.04443    -3.36068    -0.01189    -3.27237
Isotropic polarizablity (w=0)     0.87779
Electronic polarizability (w=0)     1.30464    -0.04776     0.69150    -0.16108     0.00772     0.63724

---------------
Atomic domain 3
---------------
Domain center:           -6.94200     5.96600     2.56600
Nuclear charge:           1.00000
Electronic charge:       -0.72550
Total charge:             0.27450
Electronic dipole        -0.12305    -0.02069    -0.19913
Electronic dipole norm     0.23499
Electronic quadrupole    -0.41986     0.02289     0.20831    -0.50506     0.03253    -0.19225
Isotropic polarizablity (w=0)     0.21620
Electronic polarizability (w=0)     0.17459     0.01657     0.09384     0.14814     0.02922     0.38018

---------------
Atomic domain 4
---------------
Domain center:           -9.36500     5.14100     1.24500
Nuclear charge:           1.00000
Electronic charge:       -0.83497
Total charge:             0.16503
Electronic dipole         0.13270     0.25168     0.16248
Electronic dipole norm     0.32765
Electronic quadrupole    -0.46900     0.18676     0.12835    -0.22253     0.24200    -0.41732
Isotropic polarizablity (w=0)     0.25608
Electronic polarizability (w=0)     0.24001     0.20669     0.37534     0.11559     0.16289     0.15288

---------------
Atomic domain 5
---------------
Domain center:           -9.28734     6.85633     1.32615
Nuclear charge:           1.00000
Electronic charge:       -0.84079
Total charge:             0.15921
Electronic dipole         0.10852    -0.27506     0.13510
Electronic dipole norm     0.32510
Electronic quadrupole    -0.51598    -0.15735     0.09062    -0.16276    -0.22611    -0.47855
Isotropic polarizablity (w=0)     0.26336
Electronic polarizability (w=0)     0.20462    -0.20169     0.45574     0.08140    -0.15503     0.12972

---------------
Atomic domain 6
---------------
Domain center:           -9.27104     5.91057     2.80561
Nuclear charge:           1.00000
Electronic charge:       -0.84643
Total charge:             0.15357
Electronic dipole         0.09602     0.01215    -0.31947
Electronic dipole norm     0.33381
Electronic quadrupole    -0.55647     0.00592    -0.20072    -0.60593    -0.02740    -0.01477
Isotropic polarizablity (w=0)     0.28075
Electronic polarizability (w=0)     0.18670     0.00621     0.07867    -0.22096    -0.01978     0.57687

---------------
Atomic domain 7
---------------
Domain center:           -6.84300     5.76700     0.57600
Nuclear charge:           6.00000
Electronic charge:       -5.61314
Total charge:             0.38686
Electronic dipole        -0.08336    -0.01586    -0.04580
Electronic dipole norm     0.09642
Electronic quadrupole    -2.10969    -0.03038     0.16656    -3.58596     0.15863    -1.72032
Isotropic polarizablity (w=0)     1.08391
Electronic polarizability (w=0)     1.40226    -0.05523     0.58639    -0.21971     0.06426     1.26307

---------------
Atomic domain 8
---------------
Domain center:           -5.32400     5.69900     0.60800
Nuclear charge:           6.00000
Electronic charge:       -6.48808
Total charge:            -0.48808
Electronic dipole        -0.16005    -0.00032    -0.04612
Electronic dipole norm     0.16656
Electronic quadrupole    -3.17274     0.02006     0.03373    -3.42616     0.01783    -3.38691
Isotropic polarizablity (w=0)     0.93382
Electronic polarizability (w=0)     1.40933    -0.03076     0.71176    -0.03481     0.00673     0.68039

---------------
Atomic domain 9
---------------
Domain center:           -7.44600     5.68400    -0.50000
Nuclear charge:           8.00000
Electronic charge:       -8.48634
Total charge:            -0.48634
Electronic dipole         0.26143     0.03536     0.46828
Electronic dipole norm     0.53748
Electronic quadrupole    -3.92058     0.04084     0.39743    -3.86169     0.04046    -3.37793
Isotropic polarizablity (w=0)     0.52194
Electronic polarizability (w=0)     0.40688     0.02199     0.24526     0.29276     0.05316     0.91369

----------------
Atomic domain 10
----------------
Domain center:           -4.93055     6.41204     1.30202
Nuclear charge:           1.00000
Electronic charge:       -0.85178
Total charge:             0.14822
Electronic dipole        -0.12836    -0.22592    -0.23296
Electronic dipole norm     0.34898
Electronic quadrupole    -0.52742     0.16328     0.16987    -0.31762     0.29005    -0.34150
Isotropic polarizablity (w=0)     0.28269
Electronic polarizability (w=0)     0.25156     0.17563     0.31492     0.16615     0.21789     0.28158

----------------
Atomic domain 11
----------------
Domain center:           -5.03429     4.70440     0.87586
Nuclear charge:           1.00000
Electronic charge:       -0.83352
Total charge:             0.16648
Electronic dipole        -0.09479     0.31081    -0.09136
Electronic dipole norm     0.33755
Electronic quadrupole    -0.55706    -0.16553     0.04826    -0.00833    -0.15653    -0.55226
Isotropic polarizablity (w=0)     0.27654
Electronic polarizability (w=0)     0.18843    -0.20279     0.53981     0.05123    -0.11295     0.10138

----------------
Atomic domain 12
----------------
Domain center:           -4.94400     5.92700    -0.35800
Nuclear charge:           1.00000
Electronic charge:       -0.82426
Total charge:             0.17574
Electronic dipole        -0.12341    -0.07205     0.30734
Electronic dipole norm     0.33894
Electronic quadrupole    -0.49971     0.05350    -0.22257    -0.55193    -0.13129    -0.03125
Isotropic polarizablity (w=0)     0.27836
Electronic polarizability (w=0)     0.23204     0.05072     0.09343    -0.24388    -0.09921     0.50960

---------
Molecular
---------
Domain center:           -7.20548     5.80243     0.89619
Nuclear charge:          40.00000
Electronic charge:      -40.00000
Total charge:            -0.00000
Electronic dipole         0.00260    -0.00400    -0.10797
Gauge   dipole            0.30108     0.12654     1.58250
Total   dipole            0.30369     0.12254     1.47452
Electronic quadrupole  -267.16096    15.69255    67.31354   -35.30998   -13.18874  -148.93423
Nuclear    quadrupole   247.11605   -15.92796   -68.64345    12.69233    13.16865   125.23374
Total      quadrupole   -20.04491    -0.23542    -1.32991   -22.61764    -0.02009   -23.70049
Polarizability av (0)        6.08377
Polarizability (0)           7.23122    -0.13496     4.46287    -0.46936     0.21853     6.55721
Time used in Loprop              :      0.73 (cpu)       0.60 (wall)
