AA
32 2 2 1
1    -7.7370000000    17.1500000000     0.0520000000    -0.3161694043     0.2219368608     0.0113271343    -0.0632295634    -2.8039934791     0.3485255059    -0.0995990423    -3.8076673698     0.5707194870    -2.6656968971     0.6011413305     0.2157147373     0.2764506162     0.7183671230     0.5973356127     1.3723853990
1    -6.7400000000    17.7940000000     0.8750000000    -0.0496695054    -0.2545225892    -0.0072207646     0.0406063315    -2.7843428862     0.0820712236     0.1460371933    -2.5708872609     0.2102459505    -2.7310904811     0.7322695118    -0.0637940004     0.4479383783     1.8269698716    -0.0348897086     1.3289366784
1    -6.5190000000    16.9010000000     2.1220000000     0.3701553314    -0.0235579665    -0.0854273384     0.0755362381    -1.8157387944     0.2461626786    -0.1554935159    -3.0785669192    -0.7340977108    -2.5947673151     1.3586669514    -0.2018830004     0.3480224930     1.0755103944    -0.4935010219     1.2253412055
1    -7.4860000000    16.3900000000     2.7250000000    -0.5004658163     0.4222951753     0.2078863737    -0.2510376941    -3.5269297853     0.2948663770    -0.3622128645    -3.8510677583    -0.0683382975    -3.8571933600     0.7158088382     0.2470601363    -0.2758208039     0.4014422129    -0.1865680891     0.4523725094
1    -7.1750000000    19.1990000000     1.3830000000    -0.2800392545     0.1062052114    -0.0276829332    -0.1903638619    -3.2463771587    -0.0542063882    -0.1173423738    -2.6072647809    -0.1107997161    -3.0414150765     0.5896652486    -0.0544094006    -0.1055759308     2.0834430434    -0.3159637947     0.9193750827
1    -6.8560000000    20.3370000000     0.4580000000     0.0095176929     0.0034811668     0.0387347343    -0.0345669593    -3.1919597781     0.7254266955     0.6042423054    -2.7594978271    -0.3450239088    -2.4469727896     0.8195386790     0.4448499325     0.3039189423     1.7180427505    -0.4480803808     1.3121284633
1    -7.4550000000    20.4350000000    -0.7800000000    -0.1524596878     0.1924818242     0.1974309142     0.0754593453    -3.6042096876     0.5029116396     0.4657105382    -3.0213543940    -0.5794819438    -2.5855591665     0.6917460432     0.1439206989     0.2374982884     1.2679704415    -0.5942586732     1.4372457325
1    -5.9530000000    21.3230000000     0.8420000000    -0.1568922135    -0.1217056230     0.0356000153    -0.2628730627    -3.4740970371     0.8332694930     0.3623032242    -2.7742570505    -0.4003581305    -3.0535385199     0.8524019768     0.5845771592     0.0806024412     1.6894917778    -0.2957538222     0.9843719086
1    -7.1680000000    21.4920000000    -1.6300000000    -0.1432608020     0.1329058506    -0.0192497955     0.2597922545    -3.4157375989     0.8139315945     0.3615803343    -2.7420191402    -0.3713450698    -3.0234385335     0.8477946410     0.4735422618     0.1219112056     1.4973962903    -0.3381064284     1.0449238715
1    -5.6580000000    22.3800000000     0.0050000000    -0.1438360741    -0.1910974214    -0.2103179754    -0.0784810277    -3.5721636745     0.5051676268     0.5056248935    -3.0716473460    -0.5488958205    -2.5505249496     0.7555925797     0.2509450833     0.2174812318     1.2494579540    -0.4378995954     1.3776499921
1    -6.2690000000    22.4690000000    -1.2400000000    -0.1522498279    -0.0638845009    -0.2311115960     0.1775355838    -3.3589347996     0.6929302965     0.6775636357    -3.1189530208    -0.1504890060    -2.7621170906     0.9253313304     0.3750722354     0.3603523785     1.1482061185    -0.0996796148     1.2266089516
1    -8.6270000000    17.0540000000     0.4600000000     0.2770805498     0.2153794091     0.0243906197    -0.0919839020    -0.1427876648     0.0314071900    -0.1554009594    -0.5176703076    -0.0384795046    -0.4254539078     0.3760239453     0.0434175106    -0.1021151910     0.1071664629     0.0036714586     0.1337831801
1    -5.8190000000    17.8450000000     0.3470000000     0.1637622076    -0.2771071988    -0.0199921871     0.1532314656    -0.1546049674     0.0425350568    -0.2263916005    -0.5734665093     0.0214331194    -0.4020160711     0.3885739193     0.0103210676    -0.1214686944     0.1463641107    -0.0261563672     0.1549495179
1    -8.1950000000    19.1610000000     1.6980000000     0.1579673938     0.3159118492     0.0121648003    -0.0821309399    -0.0433609473     0.0041407513    -0.1565538864    -0.5969926849     0.0052020246    -0.5683789467     0.5236502851     0.0022296690    -0.1979264249     0.1546078359    -0.0128053658     0.1609744042
1    -6.6230000000    19.3130000000     2.3040000000     0.1449719178    -0.1846174755    -0.0499679371    -0.2918240518    -0.4439613150     0.0400528309     0.2905218543    -0.5981061132     0.0770629148    -0.1428722022     0.1524288138     0.0243467824     0.1827876666     0.1821445247     0.0340994569     0.5251330385
1    -8.1450000000    19.6620000000    -1.0480000000     0.1452269061     0.1950768137     0.2060287591     0.0798833962    -0.4087092507     0.2354977930     0.0916867750    -0.3351572573     0.0988228445    -0.6137556969     0.3369260796     0.2368723563     0.1080129777     0.4063646136     0.0949065090     0.1423808132
1    -5.4590000000    21.2830000000     1.8080000000     0.1375497090    -0.1327023845     0.0163210937    -0.2643837627    -0.5343511555    -0.0148791430     0.2308590621    -0.6685622012    -0.0009650838    -0.2203376512     0.2305558246     0.0125131668     0.2439591716     0.1265437090     0.0055730457     0.5668143534
1    -7.6600000000    21.5240000000    -2.5850000000     0.1516023392     0.1306709388    -0.0141119351     0.2579573929    -0.5219532734    -0.0190199409     0.2203773540    -0.6471217437    -0.0087294143    -0.2075213353     0.2249739658    -0.0339803383     0.2566181625     0.1032603344    -0.0564040736     0.6142047032
1    -4.9430000000    23.1190000000     0.3590000000     0.1455424974    -0.1883475320    -0.1993114629    -0.0875459228    -0.4039907937     0.2435389334     0.1140769082    -0.3959816118     0.1332543437    -0.6019054065     0.3839489705     0.3209403786     0.1221436435     0.4678594939     0.1460105107     0.1489462041
1    -6.0460000000    23.2880000000    -1.9010000000     0.1499339084    -0.0604004515    -0.2213347981     0.1770417617    -0.6178829069     0.0778558581    -0.0791787254    -0.3244008632    -0.2565222906    -0.4404614470     0.1263752673     0.1064156310    -0.0906952224     0.5339552801    -0.3354184310     0.3528314225
1    -7.4810000000    16.6900000000    -1.1730000000     0.3878979887     0.0824981540     0.0127334662     0.0082335168    -1.9523136423     0.4593436935    -0.4601246719    -3.2115149389     0.4517988297    -2.2730323222     1.0043207004     0.2325398082     0.0443420358     0.9586435872     0.4662262252     1.4047421366
1    -8.6180000000    15.9070000000    -1.7900000000    -0.4856034010     0.1426270131     0.0723575990     0.0480085493    -3.2133537795     0.0969147437     0.0355938299    -3.3832627326     0.0687374970    -3.3516771041     1.0412119405     0.3164621077     0.2776146247     0.9470725255     0.2399065953     0.8570678551
1    -6.3880000000    16.8410000000    -1.7500000000    -0.4877704496    -0.4686773807    -0.0632971402     0.2449620321    -3.3669056890     0.0216967905    -0.3750398926    -3.9437290756    -0.1416460188    -3.8845423609     0.7400889603     0.0300118726    -0.3477990718     0.2618322157     0.0078250805     0.4968176862
1    -9.5280000000    16.4520000000    -1.6950000000     0.1553715069     0.2952747668    -0.1757863316    -0.0303776186    -0.1183917594    -0.2904325976    -0.0499422957    -0.4309459826     0.0232316493    -0.6125499934     0.5409304425    -0.1833041465     0.0205374462     0.1845359675     0.0094212650     0.0828337679
1    -8.3849210000    15.7122760000    -2.8159910000     0.1719708429    -0.0657647855     0.0607003003     0.3236528232    -0.5662433658    -0.0284083827    -0.1350080356    -0.5698948389     0.1187550433     0.0288654983     0.0863434051    -0.0015716960    -0.0346855311     0.1281264446     0.1742950335     0.6497161736
1    -8.7195860000    14.9783150000    -1.2683440000     0.1697874737     0.0346726653     0.2921364942    -0.1660290530    -0.5844610346     0.0482832605    -0.0330520249    -0.0843073258    -0.2920576113    -0.4323200394     0.1097082074     0.1119012651    -0.0287545583     0.5660402161    -0.1795354303     0.1472128075
1    -5.2470000000    16.7200000000     2.4580000000    -0.3098621875    -0.1582472526    -0.0999579475     0.1375150199    -2.5136787429    -0.0313798377     0.1356279883    -3.7128814016    -0.6935984285    -3.0739089156     1.1788802804    -0.3629495412     0.5652196205     0.5522102673    -0.4372435754     0.9270047915
1    -4.8120000000    15.9740000000     3.6400000000    -0.3343026887    -0.0849993276     0.1257048589    -0.2003538867    -3.2403985553    -0.0943035138     0.1359797001    -3.1266586225    -0.2102948526    -2.9832539792     0.7730728453    -0.2151551615     0.3214549633     0.8725719774    -0.3325079398     1.1359629653
1    -4.5350000000    17.0910000000     1.9100000000     0.2811987179    -0.1708468095    -0.0955160662     0.1309071174    -0.2570141631     0.1347784148    -0.1921087607    -0.4398254165    -0.0787418327    -0.3785679379     0.2911093040     0.0735875060    -0.1124371385     0.1264480037    -0.0657984804     0.1681306906
1    -5.6660000000    15.4810000000     4.0520000000     0.1789742390     0.2501380079     0.1496775558    -0.1277207670    -0.1540842332     0.2118611352    -0.1723179932    -0.4351527155    -0.1328801224    -0.4558352459     0.2461540256     0.1628151589    -0.1563443678     0.2240389996    -0.1511014633     0.2209131200
1    -4.4201650000    16.7021960000     4.3190410000     0.1560230053    -0.1258929556    -0.2132631849    -0.2165130919    -0.5079088490     0.1513452644     0.1520738226    -0.2885427050     0.2690424631    -0.3438746970     0.1830309302     0.1216093943     0.1881158691     0.2514883514     0.2069930935     0.3866827605
1    -4.0547990000    15.2650550000     3.3774280000     0.1580470846    -0.2315069234     0.2123603355     0.0801411092    -0.2724035959    -0.2980558562    -0.1047796497    -0.3296898129     0.1090884851    -0.5500894998     0.3913934396    -0.3054282729    -0.0296648446     0.3663000833     0.0312317266     0.0967561457


---------------
Atomic domain 1
---------------
Domain center:           -7.73700    17.15000     0.05200
Nuclear charge:           7.00000
Electronic charge:       -7.31617
Total charge:            -0.31617
Electronic dipole         0.22194     0.01133    -0.06323
Electronic dipole norm     0.23105
Electronic quadrupole    -2.80399     0.34853    -0.09960    -3.80767     0.57072    -2.66570
Isotropic polarizablity (w=0)     0.89730
Electronic polarizability (w=0)     0.60114     0.21571     0.71837     0.27645     0.59734     1.37239

---------------
Atomic domain 2
---------------
Domain center:           -6.74000    17.79400     0.87500
Nuclear charge:           6.00000
Electronic charge:       -6.04967
Total charge:            -0.04967
Electronic dipole        -0.25452    -0.00722     0.04061
Electronic dipole norm     0.25784
Electronic quadrupole    -2.78434     0.08207     0.14604    -2.57089     0.21025    -2.73109
Isotropic polarizablity (w=0)     1.29606
Electronic polarizability (w=0)     0.73227    -0.06379     1.82697     0.44794    -0.03489     1.32894

---------------
Atomic domain 3
---------------
Domain center:           -6.51900    16.90100     2.12200
Nuclear charge:           6.00000
Electronic charge:       -5.62984
Total charge:             0.37016
Electronic dipole        -0.02356    -0.08543     0.07554
Electronic dipole norm     0.11644
Electronic quadrupole    -1.81574     0.24616    -0.15549    -3.07857    -0.73410    -2.59477
Isotropic polarizablity (w=0)     1.21984
Electronic polarizability (w=0)     1.35867    -0.20188     1.07551     0.34802    -0.49350     1.22534

---------------
Atomic domain 4
---------------
Domain center:           -7.48600    16.39000     2.72500
Nuclear charge:           8.00000
Electronic charge:       -8.50047
Total charge:            -0.50047
Electronic dipole         0.42230     0.20789    -0.25104
Electronic dipole norm     0.53345
Electronic quadrupole    -3.52693     0.29487    -0.36221    -3.85107    -0.06834    -3.85719
Isotropic polarizablity (w=0)     0.52321
Electronic polarizability (w=0)     0.71581     0.24706     0.40144    -0.27582    -0.18657     0.45237

---------------
Atomic domain 5
---------------
Domain center:           -7.17500    19.19900     1.38300
Nuclear charge:           6.00000
Electronic charge:       -6.28004
Total charge:            -0.28004
Electronic dipole         0.10621    -0.02768    -0.19036
Electronic dipole norm     0.21974
Electronic quadrupole    -3.24638    -0.05421    -0.11734    -2.60726    -0.11080    -3.04142
Isotropic polarizablity (w=0)     1.19749
Electronic polarizability (w=0)     0.58967    -0.05441     2.08344    -0.10558    -0.31596     0.91938

---------------
Atomic domain 6
---------------
Domain center:           -6.85600    20.33700     0.45800
Nuclear charge:           6.00000
Electronic charge:       -5.99048
Total charge:             0.00952
Electronic dipole         0.00348     0.03873    -0.03457
Electronic dipole norm     0.05203
Electronic quadrupole    -3.19196     0.72543     0.60424    -2.75950    -0.34502    -2.44697
Isotropic polarizablity (w=0)     1.28324
Electronic polarizability (w=0)     0.81954     0.44485     1.71804     0.30392    -0.44808     1.31213

---------------
Atomic domain 7
---------------
Domain center:           -7.45500    20.43500    -0.78000
Nuclear charge:           6.00000
Electronic charge:       -6.15246
Total charge:            -0.15246
Electronic dipole         0.19248     0.19743     0.07546
Electronic dipole norm     0.28587
Electronic quadrupole    -3.60421     0.50291     0.46571    -3.02135    -0.57948    -2.58556
Isotropic polarizablity (w=0)     1.13232
Electronic polarizability (w=0)     0.69175     0.14392     1.26797     0.23750    -0.59426     1.43725

---------------
Atomic domain 8
---------------
Domain center:           -5.95300    21.32300     0.84200
Nuclear charge:           6.00000
Electronic charge:       -6.15689
Total charge:            -0.15689
Electronic dipole        -0.12171     0.03560    -0.26287
Electronic dipole norm     0.29186
Electronic quadrupole    -3.47410     0.83327     0.36230    -2.77426    -0.40036    -3.05354
Isotropic polarizablity (w=0)     1.17542
Electronic polarizability (w=0)     0.85240     0.58458     1.68949     0.08060    -0.29575     0.98437

---------------
Atomic domain 9
---------------
Domain center:           -7.16800    21.49200    -1.63000
Nuclear charge:           6.00000
Electronic charge:       -6.14326
Total charge:            -0.14326
Electronic dipole         0.13291    -0.01925     0.25979
Electronic dipole norm     0.29245
Electronic quadrupole    -3.41574     0.81393     0.36158    -2.74202    -0.37135    -3.02344
Isotropic polarizablity (w=0)     1.13004
Electronic polarizability (w=0)     0.84779     0.47354     1.49740     0.12191    -0.33811     1.04492

----------------
Atomic domain 10
----------------
Domain center:           -5.65800    22.38000     0.00500
Nuclear charge:           6.00000
Electronic charge:       -6.14384
Total charge:            -0.14384
Electronic dipole        -0.19110    -0.21032    -0.07848
Electronic dipole norm     0.29481
Electronic quadrupole    -3.57216     0.50517     0.50562    -3.07165    -0.54890    -2.55052
Isotropic polarizablity (w=0)     1.12757
Electronic polarizability (w=0)     0.75559     0.25095     1.24946     0.21748    -0.43790     1.37765

----------------
Atomic domain 11
----------------
Domain center:           -6.26900    22.46900    -1.24000
Nuclear charge:           6.00000
Electronic charge:       -6.15225
Total charge:            -0.15225
Electronic dipole        -0.06388    -0.23111     0.17754
Electronic dipole norm     0.29835
Electronic quadrupole    -3.35893     0.69293     0.67756    -3.11895    -0.15049    -2.76212
Isotropic polarizablity (w=0)     1.10005
Electronic polarizability (w=0)     0.92533     0.37507     1.14821     0.36035    -0.09968     1.22661

----------------
Atomic domain 12
----------------
Domain center:           -8.62700    17.05400     0.46000
Nuclear charge:           1.00000
Electronic charge:       -0.72292
Total charge:             0.27708
Electronic dipole         0.21538     0.02439    -0.09198
Electronic dipole norm     0.23547
Electronic quadrupole    -0.14279     0.03141    -0.15540    -0.51767    -0.03848    -0.42545
Isotropic polarizablity (w=0)     0.20566
Electronic polarizability (w=0)     0.37602     0.04342     0.10717    -0.10212     0.00367     0.13378

----------------
Atomic domain 13
----------------
Domain center:           -5.81900    17.84500     0.34700
Nuclear charge:           1.00000
Electronic charge:       -0.83624
Total charge:             0.16376
Electronic dipole        -0.27711    -0.01999     0.15323
Electronic dipole norm     0.31728
Electronic quadrupole    -0.15460     0.04254    -0.22639    -0.57347     0.02143    -0.40202
Isotropic polarizablity (w=0)     0.22996
Electronic polarizability (w=0)     0.38857     0.01032     0.14636    -0.12147    -0.02616     0.15495

----------------
Atomic domain 14
----------------
Domain center:           -8.19500    19.16100     1.69800
Nuclear charge:           1.00000
Electronic charge:       -0.84203
Total charge:             0.15797
Electronic dipole         0.31591     0.01216    -0.08213
Electronic dipole norm     0.32664
Electronic quadrupole    -0.04336     0.00414    -0.15655    -0.59699     0.00520    -0.56838
Isotropic polarizablity (w=0)     0.27974
Electronic polarizability (w=0)     0.52365     0.00223     0.15461    -0.19793    -0.01281     0.16097

----------------
Atomic domain 15
----------------
Domain center:           -6.62300    19.31300     2.30400
Nuclear charge:           1.00000
Electronic charge:       -0.85503
Total charge:             0.14497
Electronic dipole        -0.18462    -0.04997    -0.29182
Electronic dipole norm     0.34892
Electronic quadrupole    -0.44396     0.04005     0.29052    -0.59811     0.07706    -0.14287
Isotropic polarizablity (w=0)     0.28657
Electronic polarizability (w=0)     0.15243     0.02435     0.18214     0.18279     0.03410     0.52513

----------------
Atomic domain 16
----------------
Domain center:           -8.14500    19.66200    -1.04800
Nuclear charge:           1.00000
Electronic charge:       -0.85477
Total charge:             0.14523
Electronic dipole         0.19508     0.20603     0.07988
Electronic dipole norm     0.29476
Electronic quadrupole    -0.40871     0.23550     0.09169    -0.33516     0.09882    -0.61376
Isotropic polarizablity (w=0)     0.29522
Electronic polarizability (w=0)     0.33693     0.23687     0.40636     0.10801     0.09491     0.14238

----------------
Atomic domain 17
----------------
Domain center:           -5.45900    21.28300     1.80800
Nuclear charge:           1.00000
Electronic charge:       -0.86245
Total charge:             0.13755
Electronic dipole        -0.13270     0.01632    -0.26438
Electronic dipole norm     0.29627
Electronic quadrupole    -0.53435    -0.01488     0.23086    -0.66856    -0.00097    -0.22034
Isotropic polarizablity (w=0)     0.30797
Electronic polarizability (w=0)     0.23056     0.01251     0.12654     0.24396     0.00557     0.56681

----------------
Atomic domain 18
----------------
Domain center:           -7.66000    21.52400    -2.58500
Nuclear charge:           1.00000
Electronic charge:       -0.84840
Total charge:             0.15160
Electronic dipole         0.13067    -0.01411     0.25796
Electronic dipole norm     0.28951
Electronic quadrupole    -0.52195    -0.01902     0.22038    -0.64712    -0.00873    -0.20752
Isotropic polarizablity (w=0)     0.31415
Electronic polarizability (w=0)     0.22497    -0.03398     0.10326     0.25662    -0.05640     0.61420

----------------
Atomic domain 19
----------------
Domain center:           -4.94300    23.11900     0.35900
Nuclear charge:           1.00000
Electronic charge:       -0.85446
Total charge:             0.14554
Electronic dipole        -0.18835    -0.19931    -0.08755
Electronic dipole norm     0.28786
Electronic quadrupole    -0.40399     0.24354     0.11408    -0.39598     0.13325    -0.60191
Isotropic polarizablity (w=0)     0.33358
Electronic polarizability (w=0)     0.38395     0.32094     0.46786     0.12214     0.14601     0.14895

----------------
Atomic domain 20
----------------
Domain center:           -6.04600    23.28800    -1.90100
Nuclear charge:           1.00000
Electronic charge:       -0.85007
Total charge:             0.14993
Electronic dipole        -0.06040    -0.22133     0.17704
Electronic dipole norm     0.28979
Electronic quadrupole    -0.61788     0.07786    -0.07918    -0.32440    -0.25652    -0.44046
Isotropic polarizablity (w=0)     0.33772
Electronic polarizability (w=0)     0.12638     0.10642     0.53396    -0.09070    -0.33542     0.35283

----------------
Atomic domain 21
----------------
Domain center:           -7.48100    16.69000    -1.17300
Nuclear charge:           6.00000
Electronic charge:       -5.61210
Total charge:             0.38790
Electronic dipole         0.08250     0.01273     0.00823
Electronic dipole norm     0.08388
Electronic quadrupole    -1.95231     0.45934    -0.46012    -3.21151     0.45180    -2.27303
Isotropic polarizablity (w=0)     1.12257
Electronic polarizability (w=0)     1.00432     0.23254     0.95864     0.04434     0.46623     1.40474

----------------
Atomic domain 22
----------------
Domain center:           -8.61800    15.90700    -1.79000
Nuclear charge:           6.00000
Electronic charge:       -6.48560
Total charge:            -0.48560
Electronic dipole         0.14263     0.07236     0.04801
Electronic dipole norm     0.16698
Electronic quadrupole    -3.21335     0.09691     0.03559    -3.38326     0.06874    -3.35168
Isotropic polarizablity (w=0)     0.94845
Electronic polarizability (w=0)     1.04121     0.31646     0.94707     0.27761     0.23991     0.85707

----------------
Atomic domain 23
----------------
Domain center:           -6.38800    16.84100    -1.75000
Nuclear charge:           8.00000
Electronic charge:       -8.48777
Total charge:            -0.48777
Electronic dipole        -0.46868    -0.06330     0.24496
Electronic dipole norm     0.53261
Electronic quadrupole    -3.36691     0.02170    -0.37504    -3.94373    -0.14165    -3.88454
Isotropic polarizablity (w=0)     0.49958
Electronic polarizability (w=0)     0.74009     0.03001     0.26183    -0.34780     0.00783     0.49682

----------------
Atomic domain 24
----------------
Domain center:           -9.52800    16.45200    -1.69500
Nuclear charge:           1.00000
Electronic charge:       -0.84463
Total charge:             0.15537
Electronic dipole         0.29527    -0.17579    -0.03038
Electronic dipole norm     0.34498
Electronic quadrupole    -0.11839    -0.29043    -0.04994    -0.43095     0.02323    -0.61255
Isotropic polarizablity (w=0)     0.26943
Electronic polarizability (w=0)     0.54093    -0.18330     0.18454     0.02054     0.00942     0.08283

----------------
Atomic domain 25
----------------
Domain center:           -8.38492    15.71228    -2.81599
Nuclear charge:           1.00000
Electronic charge:       -0.82803
Total charge:             0.17197
Electronic dipole        -0.06576     0.06070     0.32365
Electronic dipole norm     0.33580
Electronic quadrupole    -0.56624    -0.02841    -0.13501    -0.56989     0.11876     0.02887
Isotropic polarizablity (w=0)     0.28806
Electronic polarizability (w=0)     0.08634    -0.00157     0.12813    -0.03469     0.17430     0.64972

----------------
Atomic domain 26
----------------
Domain center:           -8.71959    14.97832    -1.26834
Nuclear charge:           1.00000
Electronic charge:       -0.83021
Total charge:             0.16979
Electronic dipole         0.03467     0.29214    -0.16603
Electronic dipole norm     0.33780
Electronic quadrupole    -0.58446     0.04828    -0.03305    -0.08431    -0.29206    -0.43232
Isotropic polarizablity (w=0)     0.27432
Electronic polarizability (w=0)     0.10971     0.11190     0.56604    -0.02875    -0.17954     0.14721

----------------
Atomic domain 27
----------------
Domain center:           -5.24700    16.72000     2.45800
Nuclear charge:           7.00000
Electronic charge:       -7.30986
Total charge:            -0.30986
Electronic dipole        -0.15825    -0.09996     0.13752
Electronic dipole norm     0.23226
Electronic quadrupole    -2.51368    -0.03138     0.13563    -3.71288    -0.69360    -3.07391
Isotropic polarizablity (w=0)     0.88603
Electronic polarizability (w=0)     1.17888    -0.36295     0.55221     0.56522    -0.43724     0.92700

----------------
Atomic domain 28
----------------
Domain center:           -4.81200    15.97400     3.64000
Nuclear charge:           6.00000
Electronic charge:       -6.33430
Total charge:            -0.33430
Electronic dipole        -0.08500     0.12570    -0.20035
Electronic dipole norm     0.25133
Electronic quadrupole    -3.24040    -0.09430     0.13598    -3.12666    -0.21029    -2.98325
Isotropic polarizablity (w=0)     0.92720
Electronic polarizability (w=0)     0.77307    -0.21516     0.87257     0.32145    -0.33251     1.13596

----------------
Atomic domain 29
----------------
Domain center:           -4.53500    17.09100     1.91000
Nuclear charge:           1.00000
Electronic charge:       -0.71880
Total charge:             0.28120
Electronic dipole        -0.17085    -0.09552     0.13091
Electronic dipole norm     0.23548
Electronic quadrupole    -0.25701     0.13478    -0.19211    -0.43983    -0.07874    -0.37857
Isotropic polarizablity (w=0)     0.19523
Electronic polarizability (w=0)     0.29111     0.07359     0.12645    -0.11244    -0.06580     0.16813

----------------
Atomic domain 30
----------------
Domain center:           -5.66600    15.48100     4.05200
Nuclear charge:           1.00000
Electronic charge:       -0.82103
Total charge:             0.17897
Electronic dipole         0.25014     0.14968    -0.12772
Electronic dipole norm     0.31825
Electronic quadrupole    -0.15408     0.21186    -0.17232    -0.43515    -0.13288    -0.45584
Isotropic polarizablity (w=0)     0.23037
Electronic polarizability (w=0)     0.24615     0.16282     0.22404    -0.15634    -0.15110     0.22091

----------------
Atomic domain 31
----------------
Domain center:           -4.42016    16.70220     4.31904
Nuclear charge:           1.00000
Electronic charge:       -0.84398
Total charge:             0.15602
Electronic dipole        -0.12589    -0.21326    -0.21651
Electronic dipole norm     0.32895
Electronic quadrupole    -0.50791     0.15135     0.15207    -0.28854     0.26904    -0.34387
Isotropic polarizablity (w=0)     0.27373
Electronic polarizability (w=0)     0.18303     0.12161     0.25149     0.18812     0.20699     0.38668

----------------
Atomic domain 32
----------------
Domain center:           -4.05480    15.26506     3.37743
Nuclear charge:           1.00000
Electronic charge:       -0.84195
Total charge:             0.15805
Electronic dipole        -0.23151     0.21236     0.08014
Electronic dipole norm     0.32421
Electronic quadrupole    -0.27240    -0.29806    -0.10478    -0.32969     0.10909    -0.55009
Isotropic polarizablity (w=0)     0.28482
Electronic polarizability (w=0)     0.39139    -0.30543     0.36630    -0.02966     0.03123     0.09676

---------
Molecular
---------
Domain center:           -6.71974    18.49385     0.43189
Nuclear charge:         118.00000
Electronic charge:     -118.00000
Total charge:             0.00000
Electronic dipole        -0.06232    -0.05799    -0.16895
Gauge   dipole            0.40832     0.32458     0.83511
Total   dipole            0.34600     0.26658     0.66616
Electronic quadrupole  -563.41147  -161.94954  -416.35890 -2413.13484   576.90007 -1409.34045
Nuclear    quadrupole   500.58932   162.19513   427.74176  2344.33331  -578.55809  1337.20597
Total      quadrupole   -62.82215     0.24560    11.38286   -68.80153    -1.65802   -72.13448
Polarizability av (0)       20.87291
Polarizability (0)          18.21966     3.11919    22.34387     3.12169    -2.82418    22.05520
Time used in Loprop              :      9.86 (cpu)       6.77 (wall)
