AA
12 2 2 1
1    -9.9300000000     9.6520000000    12.7010000000    -0.3224430794    -0.0386015067    -0.2181064089     0.1336295309    -3.9941775325     0.2038743030    -0.4599372549    -2.6502203956     0.1334908193    -2.6890989642     0.3320185461    -0.0430376377    -0.2368103352     0.8245103461     0.3900832512     1.2349636004
1    -9.8980000000     8.3560000000    12.0590000000    -0.3377421173    -0.0202572647     0.2203921391     0.1318339976    -3.3492719303    -0.0384417577    -0.0194844231    -2.7950202343     0.2656861639    -3.1469372977     0.6736890695    -0.0714416047    -0.0193340010     1.0464526934     0.3446652331     0.8690546637
1    -9.6140000000    10.4530000000    12.2380000000     0.2736292082    -0.0762420820    -0.1904404176     0.1156361416    -0.4636207064     0.1189061105    -0.0680088686    -0.2421561117    -0.1948845399    -0.4195091083     0.1327267104     0.0950228035    -0.0681283453     0.3106142601    -0.1526030674     0.2048547652
1   -10.8620000000     7.9250000000    12.0690000000     0.1670608371     0.3045888168     0.1388887966    -0.0040862141    -0.0663997110     0.2213376114    -0.0109178366    -0.4604073775    -0.0037267683    -0.5789009365     0.4729630172     0.2139185310     0.0531437327     0.2074430426     0.0389987439     0.0749034677
1    -9.2313640000     7.6541300000    12.5149340000     0.1591926935    -0.2061416537     0.2077073422    -0.1387657028    -0.3604366036    -0.2365821010     0.1664564846    -0.3262677247    -0.1645005814    -0.4801585921     0.3004151573    -0.2491386547     0.1066996835     0.3683753490    -0.1030512873     0.1207640505
1    -9.6284470000     8.4664610000    11.0294180000     0.1519751453    -0.0925623611    -0.0473467099     0.3259201452    -0.5672932756     0.0150701913    -0.1657536163    -0.6172950129    -0.0731138346     0.0101572577     0.1136386894     0.0007063859    -0.1462243571     0.0863382955    -0.0026516445     0.6499949255
1   -10.2990000000     9.7360000000    13.9740000000     0.3894994353    -0.0310560897    -0.1063561101    -0.0132624461    -3.3969626953     0.2762807238    -0.4908937226    -1.9097834363    -0.1669249086    -2.1024279806     0.6448353032     0.0062317364    -0.2144057136     1.2255162909     0.2153782004     1.3577014479
1   -10.3360000000    11.1420000000    14.5760000000    -0.4901953328    -0.0185580229    -0.1528985706    -0.0323884617    -3.4641674857     0.0510653658    -0.0375213164    -3.1693998931     0.0297179911    -3.4035498607     0.7075408624    -0.0303560621    -0.0126898472     1.2764513145     0.2910080389     0.8418903356
1   -10.6430000000     8.7430000000    14.6030000000    -0.4799072312     0.1517617030     0.4378504845    -0.2807860395    -3.7929394354     0.1874894540    -0.0677474052    -3.4820563265    -0.4100673276    -3.8257173905     0.3087411759     0.1721452820    -0.1376625347     0.7158059280    -0.3318097393     0.5285023523
1    -9.4640050000    11.7174430000    14.3449400000     0.1513168844    -0.2812716004    -0.1793818371     0.0756076647    -0.1695158353     0.2889582526    -0.1135233496    -0.4230436666    -0.0800664408    -0.5969749353     0.4277894350     0.2722013730    -0.0556791288     0.3235550226    -0.0304080538     0.0934153912
1   -11.1872500000    11.6703380000    14.2003240000     0.1654315351     0.2705833514    -0.1680795395     0.1251473637    -0.1579007743    -0.2626502624     0.1944740615    -0.4394385578    -0.1232697163    -0.5147426458     0.4248556122    -0.2604590781     0.1210049814     0.2920348536    -0.0803518230     0.1174291902
1   -10.4610000000    11.0210000000    15.6350000000     0.1721820219     0.0327827445     0.0295653414    -0.3355813087    -0.5827731393     0.0081067236    -0.0753198363    -0.5885691723    -0.0690597306     0.0773175918     0.0795651057    -0.0041477962    -0.0673817798     0.0952277252     0.0267174653     0.6776332350


---------------
Atomic domain 1
---------------
Domain center:           -9.93000     9.65200    12.70100
Nuclear charge:           7.00000
Electronic charge:       -7.32244
Total charge:            -0.32244
Electronic dipole        -0.03860    -0.21811     0.13363
Electronic dipole norm     0.25868
Electronic quadrupole    -3.99418     0.20387    -0.45994    -2.65022     0.13349    -2.68910
Isotropic polarizablity (w=0)     0.79716
Electronic polarizability (w=0)     0.33202    -0.04304     0.82451    -0.23681     0.39008     1.23496

---------------
Atomic domain 2
---------------
Domain center:           -9.89800     8.35600    12.05900
Nuclear charge:           6.00000
Electronic charge:       -6.33774
Total charge:            -0.33774
Electronic dipole        -0.02026     0.22039     0.13183
Electronic dipole norm     0.25761
Electronic quadrupole    -3.34927    -0.03844    -0.01948    -2.79502     0.26569    -3.14694
Isotropic polarizablity (w=0)     0.86307
Electronic polarizability (w=0)     0.67369    -0.07144     1.04645    -0.01933     0.34467     0.86905

---------------
Atomic domain 3
---------------
Domain center:           -9.61400    10.45300    12.23800
Nuclear charge:           1.00000
Electronic charge:       -0.72637
Total charge:             0.27363
Electronic dipole        -0.07624    -0.19044     0.11564
Electronic dipole norm     0.23548
Electronic quadrupole    -0.46362     0.11891    -0.06801    -0.24216    -0.19488    -0.41951
Isotropic polarizablity (w=0)     0.21607
Electronic polarizability (w=0)     0.13273     0.09502     0.31061    -0.06813    -0.15260     0.20485

---------------
Atomic domain 4
---------------
Domain center:          -10.86200     7.92500    12.06900
Nuclear charge:           1.00000
Electronic charge:       -0.83294
Total charge:             0.16706
Electronic dipole         0.30459     0.13889    -0.00409
Electronic dipole norm     0.33479
Electronic quadrupole    -0.06640     0.22134    -0.01092    -0.46041    -0.00373    -0.57890
Isotropic polarizablity (w=0)     0.25177
Electronic polarizability (w=0)     0.47296     0.21392     0.20744     0.05314     0.03900     0.07490

---------------
Atomic domain 5
---------------
Domain center:           -9.23136     7.65413    12.51493
Nuclear charge:           1.00000
Electronic charge:       -0.84081
Total charge:             0.15919
Electronic dipole        -0.20614     0.20771    -0.13877
Electronic dipole norm     0.32387
Electronic quadrupole    -0.36044    -0.23658     0.16646    -0.32627    -0.16450    -0.48016
Isotropic polarizablity (w=0)     0.26318
Electronic polarizability (w=0)     0.30042    -0.24914     0.36838     0.10670    -0.10305     0.12076

---------------
Atomic domain 6
---------------
Domain center:           -9.62845     8.46646    11.02942
Nuclear charge:           1.00000
Electronic charge:       -0.84802
Total charge:             0.15198
Electronic dipole        -0.09256    -0.04735     0.32592
Electronic dipole norm     0.34210
Electronic quadrupole    -0.56729     0.01507    -0.16575    -0.61730    -0.07311     0.01016
Isotropic polarizablity (w=0)     0.28332
Electronic polarizability (w=0)     0.11364     0.00071     0.08634    -0.14622    -0.00265     0.64999

---------------
Atomic domain 7
---------------
Domain center:          -10.29900     9.73600    13.97400
Nuclear charge:           6.00000
Electronic charge:       -5.61050
Total charge:             0.38950
Electronic dipole        -0.03106    -0.10636    -0.01326
Electronic dipole norm     0.11159
Electronic quadrupole    -3.39696     0.27628    -0.49089    -1.90978    -0.16692    -2.10243
Isotropic polarizablity (w=0)     1.07602
Electronic polarizability (w=0)     0.64484     0.00623     1.22552    -0.21441     0.21538     1.35770

---------------
Atomic domain 8
---------------
Domain center:          -10.33600    11.14200    14.57600
Nuclear charge:           6.00000
Electronic charge:       -6.49020
Total charge:            -0.49020
Electronic dipole        -0.01856    -0.15290    -0.03239
Electronic dipole norm     0.15739
Electronic quadrupole    -3.46417     0.05107    -0.03752    -3.16940     0.02972    -3.40355
Isotropic polarizablity (w=0)     0.94196
Electronic polarizability (w=0)     0.70754    -0.03036     1.27645    -0.01269     0.29101     0.84189

---------------
Atomic domain 9
---------------
Domain center:          -10.64300     8.74300    14.60300
Nuclear charge:           8.00000
Electronic charge:       -8.47991
Total charge:            -0.47991
Electronic dipole         0.15176     0.43785    -0.28079
Electronic dipole norm     0.54184
Electronic quadrupole    -3.79294     0.18749    -0.06775    -3.48206    -0.41007    -3.82572
Isotropic polarizablity (w=0)     0.51768
Electronic polarizability (w=0)     0.30874     0.17215     0.71581    -0.13766    -0.33181     0.52850

----------------
Atomic domain 10
----------------
Domain center:           -9.46401    11.71744    14.34494
Nuclear charge:           1.00000
Electronic charge:       -0.84868
Total charge:             0.15132
Electronic dipole        -0.28127    -0.17938     0.07561
Electronic dipole norm     0.34206
Electronic quadrupole    -0.16952     0.28896    -0.11352    -0.42304    -0.08007    -0.59697
Isotropic polarizablity (w=0)     0.28159
Electronic polarizability (w=0)     0.42779     0.27220     0.32356    -0.05568    -0.03041     0.09342

----------------
Atomic domain 11
----------------
Domain center:          -11.18725    11.67034    14.20032
Nuclear charge:           1.00000
Electronic charge:       -0.83457
Total charge:             0.16543
Electronic dipole         0.27058    -0.16808     0.12515
Electronic dipole norm     0.34224
Electronic quadrupole    -0.15790    -0.26265     0.19447    -0.43944    -0.12327    -0.51474
Isotropic polarizablity (w=0)     0.27811
Electronic polarizability (w=0)     0.42486    -0.26046     0.29203     0.12100    -0.08035     0.11743

----------------
Atomic domain 12
----------------
Domain center:          -10.46100    11.02100    15.63500
Nuclear charge:           1.00000
Electronic charge:       -0.82782
Total charge:             0.17218
Electronic dipole         0.03278     0.02957    -0.33558
Electronic dipole norm     0.33847
Electronic quadrupole    -0.58277     0.00811    -0.07532    -0.58857    -0.06906     0.07732
Isotropic polarizablity (w=0)     0.28414
Electronic polarizability (w=0)     0.07957    -0.00415     0.09523    -0.06738     0.02672     0.67763

---------
Molecular
---------
Domain center:          -10.20750     9.54548    13.53542
Nuclear charge:          40.00000
Electronic charge:      -40.00000
Total charge:             0.00000
Electronic dipole        -0.00497    -0.02821     0.10290
Gauge   dipole            0.46406     0.92761    -1.19657
Total   dipole            0.45908     0.89941    -1.09366
Electronic quadrupole   -45.63673     7.53990    42.68863  -195.98743   -89.47544  -205.57059
Nuclear    quadrupole    22.94798    -8.05082   -42.72560   174.38251    91.53492   183.48933
Total      quadrupole   -22.68875    -0.51092    -0.03697   -21.60492     2.05948   -22.08126
Polarizability av (0)        6.05407
Polarizability (0)           4.61878     0.10165     6.77233    -0.67747     0.60598     6.77111
Time used in Loprop              :      0.78 (cpu)       0.65 (wall)
