AA
31 2 2 1
1    -8.3740000000     4.3140000000    10.5650000000    -0.3215191737     0.1130438931    -0.1709665193    -0.1105605679    -3.3415263208     0.2151862205    -0.7703283335    -2.5828409212     0.0386001706    -3.3905849527     0.8166255885     0.5087706379    -0.4512737727     1.0965476431    -0.4207454483     0.7745172109
1    -7.3370000000     4.6370000000     9.5830000000    -0.0440884687    -0.1916850873     0.1690154090     0.0495216581    -2.6272992024     0.0836712189    -0.0704706775    -2.8328282435    -0.1549781062    -2.6029125220     1.4921962499     0.4409015675     0.2001904681     0.8243113440    -0.2799151440     1.4056289947
1    -6.2890000000     5.5500000000    10.1570000000     0.3742571666     0.0357477278     0.0855138182     0.0195913726    -2.1777274901    -0.2490562606     0.1734243844    -1.8932930042     0.5738619860    -3.3495046181     1.8251504643     0.0743300145     0.3088952861     0.9629537937     0.1517073342     0.7633949644
1    -6.5910000000     6.7060000000    10.5280000000    -0.5006849412     0.1450845465    -0.4869885119    -0.1551882949    -4.0755372034    -0.2302585095    -0.1306296054    -3.2972899497     0.1739951592    -3.8900897701     0.3417859480    -0.1540435465    -0.0274489669     0.8699397839     0.2059536441     0.3144400772
1    -7.9750000000     5.3390000000     8.3710000000    -0.2577449134    -0.0800540517    -0.2155542743     0.0634954825    -2.8886971031     0.1058772255     0.3532100744    -3.0190275853    -0.0591768327    -2.7839767322     1.0857511077     0.0872095815     0.5691043577     0.7811095717    -0.1040863889     1.3844928565
1    -9.0760000000     4.5530000000     7.6820000000    -0.0851402368     0.1236135395     0.0975805453    -0.1776917862    -2.5704618834    -0.1409642000     0.1904970549    -2.4733353731     0.1717337569    -2.7221640561     1.0959951850    -0.1540384868     0.3805927862     1.0523640366     0.1519812025     1.1548353065
1    -9.9220000000     5.5080000000     6.8320000000    -0.4269367519     0.1229689655    -0.1438688570     0.1373728642    -3.2287057494    -0.1229722985     0.1369415193    -3.1808896989    -0.1675979984    -3.2267375187     0.9631617724    -0.2637245284     0.2978818409     0.9048587471    -0.2305297714     0.9437179850
1    -8.4760000000     3.4380000000     6.8420000000    -0.4259282732    -0.1073446488     0.1680359189     0.1265440741    -3.2822055771    -0.1620550724    -0.1247231542    -3.1411459928     0.1374238877    -3.2332277549     0.7416820967    -0.1300089605    -0.0628210751     0.9828954708     0.3064967488     0.9534356772
1    -8.7500000000     5.0340000000    11.0970000000     0.2841281844     0.0916574032    -0.1782645651    -0.1236859154    -0.4204892136    -0.1213146418    -0.0944831170    -0.2620059191     0.1751672997    -0.3832729639     0.1454095239    -0.0823616249    -0.0849051170     0.2395712400     0.1216307456     0.2033107433
1    -6.8210000000     3.7440000000     9.2210000000     0.1473452224    -0.1480216625     0.2577288966     0.0941254277    -0.4636584598    -0.1901147835    -0.1242899584    -0.1875251772     0.1534287481    -0.5291450097     0.2429353229    -0.1376858746    -0.0460489092     0.3010869900     0.1178650050     0.1781449568
1    -8.3720000000     6.3090000000     8.6670000000     0.1362894048     0.1235381708    -0.2965963000    -0.0976155750    -0.5281266350    -0.2099642490    -0.0472031585    -0.1377394835     0.1519528030    -0.5818171594     0.1737959077    -0.1558638445     0.0103602691     0.5210369265     0.0898794305     0.1381239203
1    -7.1940000000     5.5240000000     7.6370000000     0.1310007808    -0.2527921396    -0.0603799659     0.2252711095    -0.3080237274     0.0811586521    -0.3262268894    -0.6249313807    -0.0665097976    -0.3421688298     0.3807764693     0.1272548768    -0.2238220834     0.1382045021    -0.1042562707     0.3796628743
1    -7.9570000000     2.7200000000     7.4600000000     0.1450139848    -0.1642175809     0.2174993587    -0.1852104213    -0.4861340328    -0.2028297907     0.1699492305    -0.3437765062    -0.2678947216    -0.3792136769     0.2026472395    -0.1759575067     0.1241052008     0.3537159397    -0.1370645627     0.2313502991
1    -9.3250000000     2.9720000000     6.3530000000     0.1374351234     0.2645428485     0.1587614675     0.1617329602    -0.2153935470     0.2375007090     0.2424562608    -0.5207533266     0.1227627618    -0.5029067344     0.3793519240     0.2056843160     0.2266205673     0.2673758638     0.1823751077     0.2609740336
1    -7.8130000000     3.8460000000     6.0830000000     0.1292606335    -0.2132225334    -0.1288453178     0.2377873740    -0.3981914629     0.1530513440    -0.2835786449    -0.5539567358    -0.1783139317    -0.3219877977     0.2858094046     0.0715321375    -0.2582821696     0.1361089743    -0.0820756444     0.4291986070
1    -9.7590000000     4.1330000000     8.4100000000     0.1244737234     0.2074998246     0.1297633102    -0.2218863885    -0.3871592990     0.1495114252    -0.2289865993    -0.5629134671    -0.1494247683    -0.3650075538     0.3336207465     0.1244432477    -0.1919941591     0.1741885280    -0.1431708240     0.3582552191
1   -10.3200000000     6.2570000000     7.4950000000     0.1391879878     0.1338152324    -0.2433237908    -0.2093755666    -0.5363857852    -0.1659484276    -0.1616088315    -0.3182462881     0.2943522809    -0.3722166486     0.2246017227    -0.2036496885    -0.1037324942     0.3853618438     0.1913320965     0.2288914668
1    -9.2890000000     5.9960000000     6.0980000000     0.1338690930    -0.1951846613    -0.1510851980     0.2367140108    -0.4170049388     0.1768418641    -0.2695328515    -0.5062984464    -0.1985101079    -0.3393693947     0.2083522940     0.1050536597    -0.1634125435     0.2379714483    -0.2265893767     0.4057273725
1   -10.7190000000     4.9570000000     6.3850000000     0.1433566963     0.2544642750     0.1717374007     0.1499986027    -0.2658246815     0.2579114853     0.1925168816    -0.4559366042     0.1461684218    -0.5171682359     0.4697420653     0.1614716036     0.2480061566     0.1799405709     0.1013822808     0.2334229277
1    -8.7580000000     3.0580000000    10.7800000000     0.3923982761     0.0571415576    -0.0379547406    -0.0648793276    -2.6235608043    -0.1157792698    -0.7646515978    -1.7822780321     0.2245151569    -3.0090506958     1.0764158596     0.3029045830    -0.3906653930     1.3705035712    -0.2755519529     0.9196522417
1    -9.9650000000     2.8800000000    11.7060000000    -0.4774535200     0.1177225380    -0.0264359839    -0.1111379792    -3.3768310877    -0.0442519276    -0.1811279977    -3.3459631082     0.0322415054    -3.2774762398     1.1359740956     0.1631454765    -0.4088441541     0.7181045816    -0.1307451459     1.0401853287
1    -8.2060000000     2.0800000000    10.2820000000    -0.4945154277    -0.2400776833     0.4292027079     0.2238456247    -3.8571829775    -0.3522185080    -0.0443080805    -3.4977622659     0.3035960340    -3.8413321586     0.3313823491    -0.2152992193    -0.0920701465     0.7979622682     0.1753365663     0.3395185653
1   -10.2420000000     3.8050000000    12.2110000000     0.1375055982     0.0860116446    -0.2875110889    -0.1564116688    -0.5889618736    -0.1539142405    -0.0823315807    -0.1558418018     0.2709322537    -0.4855150039     0.1812263876    -0.1377719679    -0.1368155686     0.3847584832     0.2198987332     0.2684559370
1   -10.7273410000     2.5788640000    11.0182120000     0.1751794940     0.2542575060     0.0913050974     0.2090387449    -0.2249053938     0.1419982782     0.3250507449    -0.5217243476     0.1266965210    -0.3052249589     0.4420126968     0.1557599939     0.2082272031     0.1346800774     0.0797165644     0.2272399790
1    -9.7971010000     2.0908050000    12.4087660000     0.1725694924    -0.0533220531     0.2388919047    -0.2192879073    -0.5780124287    -0.0757344984     0.0734427543    -0.2266101076    -0.3216476650    -0.3042925460     0.0868563745    -0.0005426663    -0.0033975024     0.4037983749    -0.3257096259     0.3887127542
1    -5.0530000000     5.0580000000    10.2010000000    -0.3007655306    -0.0264361616     0.2208949124     0.0930044341    -2.4731433853    -0.1006169971     0.2655379222    -2.8206305880     0.4116935024    -3.9419067469     1.8059879135     0.0723940299     0.3095814333     0.5093583465     0.1012783983     0.3569970630
1    -3.9260000000     5.8180000000    10.6760000000    -0.3350407095    -0.2098330669    -0.1283807039    -0.0791301726    -2.9158894795     0.2262965042     0.1433226404    -3.2037230024     0.1189871391    -3.2338409379     1.3365805455     0.2958835170     0.2417331328     0.7062977951     0.0817191022     0.7345769213
1    -4.8880000000     4.1310000000     9.9420000000     0.2817763255    -0.0405263311     0.2201804486     0.0635477172    -0.5013792617    -0.0897730895    -0.0292926429    -0.1042688499     0.1045903672    -0.4673531217     0.1341840011    -0.0805822543    -0.0085994969     0.3582082876     0.0732291548     0.1009189940
1    -4.2780000000     6.7870000000    11.0110000000     0.1761548137     0.0964041441    -0.2876685598    -0.0933035282    -0.4552326978    -0.1711778532    -0.0439964525    -0.0655106795     0.1815718263    -0.5262446570     0.0793013390    -0.0212525996    -0.0079506817     0.4796701129     0.1613543603     0.1354393553
1    -3.1860610000     5.9055050000     9.9080590000     0.1541327328    -0.2258782019    -0.0305622800     0.2344070533    -0.2924900855     0.0340424110    -0.3010841424    -0.6028327300    -0.0330167063    -0.2663811917     0.4698758479     0.0698453505    -0.2783366905     0.0855860943    -0.0426370637     0.3048448893
1    -3.4649120000     5.3372910000    11.5133870000     0.1544832129    -0.1430619630     0.1543095366    -0.2577544234    -0.4688817009    -0.1190381221     0.2081189061    -0.4665599677    -0.2341016998    -0.2171558942     0.2824333978    -0.1112596141     0.2617883487     0.1576189540    -0.1692287361     0.4296323497


---------------
Atomic domain 1
---------------
Domain center:           -8.37400     4.31400    10.56500
Nuclear charge:           7.00000
Electronic charge:       -7.32152
Total charge:            -0.32152
Electronic dipole         0.11304    -0.17097    -0.11056
Electronic dipole norm     0.23288
Electronic quadrupole    -3.34153     0.21519    -0.77033    -2.58284     0.03860    -3.39058
Isotropic polarizablity (w=0)     0.89590
Electronic polarizability (w=0)     0.81663     0.50877     1.09655    -0.45127    -0.42075     0.77452

---------------
Atomic domain 2
---------------
Domain center:           -7.33700     4.63700     9.58300
Nuclear charge:           6.00000
Electronic charge:       -6.04409
Total charge:            -0.04409
Electronic dipole        -0.19169     0.16902     0.04952
Electronic dipole norm     0.26031
Electronic quadrupole    -2.62730     0.08367    -0.07047    -2.83283    -0.15498    -2.60291
Isotropic polarizablity (w=0)     1.24071
Electronic polarizability (w=0)     1.49220     0.44090     0.82431     0.20019    -0.27992     1.40563

---------------
Atomic domain 3
---------------
Domain center:           -6.28900     5.55000    10.15700
Nuclear charge:           6.00000
Electronic charge:       -5.62574
Total charge:             0.37426
Electronic dipole         0.03575     0.08551     0.01959
Electronic dipole norm     0.09473
Electronic quadrupole    -2.17773    -0.24906     0.17342    -1.89329     0.57386    -3.34950
Isotropic polarizablity (w=0)     1.18383
Electronic polarizability (w=0)     1.82515     0.07433     0.96295     0.30890     0.15171     0.76339

---------------
Atomic domain 4
---------------
Domain center:           -6.59100     6.70600    10.52800
Nuclear charge:           8.00000
Electronic charge:       -8.50068
Total charge:            -0.50068
Electronic dipole         0.14508    -0.48699    -0.15519
Electronic dipole norm     0.53131
Electronic quadrupole    -4.07554    -0.23026    -0.13063    -3.29729     0.17400    -3.89009
Isotropic polarizablity (w=0)     0.50872
Electronic polarizability (w=0)     0.34179    -0.15404     0.86994    -0.02745     0.20595     0.31444

---------------
Atomic domain 5
---------------
Domain center:           -7.97500     5.33900     8.37100
Nuclear charge:           6.00000
Electronic charge:       -6.25774
Total charge:            -0.25774
Electronic dipole        -0.08005    -0.21555     0.06350
Electronic dipole norm     0.23855
Electronic quadrupole    -2.88870     0.10588     0.35321    -3.01903    -0.05918    -2.78398
Isotropic polarizablity (w=0)     1.08378
Electronic polarizability (w=0)     1.08575     0.08721     0.78111     0.56910    -0.10409     1.38449

---------------
Atomic domain 6
---------------
Domain center:           -9.07600     4.55300     7.68200
Nuclear charge:           6.00000
Electronic charge:       -6.08514
Total charge:            -0.08514
Electronic dipole         0.12361     0.09758    -0.17769
Electronic dipole norm     0.23744
Electronic quadrupole    -2.57046    -0.14096     0.19050    -2.47334     0.17173    -2.72216
Isotropic polarizablity (w=0)     1.10106
Electronic polarizability (w=0)     1.09600    -0.15404     1.05236     0.38059     0.15198     1.15484

---------------
Atomic domain 7
---------------
Domain center:           -9.92200     5.50800     6.83200
Nuclear charge:           6.00000
Electronic charge:       -6.42694
Total charge:            -0.42694
Electronic dipole         0.12297    -0.14387     0.13737
Electronic dipole norm     0.23386
Electronic quadrupole    -3.22871    -0.12297     0.13694    -3.18089    -0.16760    -3.22674
Isotropic polarizablity (w=0)     0.93725
Electronic polarizability (w=0)     0.96316    -0.26372     0.90486     0.29788    -0.23053     0.94372

---------------
Atomic domain 8
---------------
Domain center:           -8.47600     3.43800     6.84200
Nuclear charge:           6.00000
Electronic charge:       -6.42593
Total charge:            -0.42593
Electronic dipole        -0.10734     0.16804     0.12654
Electronic dipole norm     0.23616
Electronic quadrupole    -3.28221    -0.16206    -0.12472    -3.14115     0.13742    -3.23323
Isotropic polarizablity (w=0)     0.89267
Electronic polarizability (w=0)     0.74168    -0.13001     0.98290    -0.06282     0.30650     0.95344

---------------
Atomic domain 9
---------------
Domain center:           -8.75000     5.03400    11.09700
Nuclear charge:           1.00000
Electronic charge:       -0.71587
Total charge:             0.28413
Electronic dipole         0.09166    -0.17826    -0.12369
Electronic dipole norm     0.23554
Electronic quadrupole    -0.42049    -0.12131    -0.09448    -0.26201     0.17517    -0.38327
Isotropic polarizablity (w=0)     0.19610
Electronic polarizability (w=0)     0.14541    -0.08236     0.23957    -0.08491     0.12163     0.20331

----------------
Atomic domain 10
----------------
Domain center:           -6.82100     3.74400     9.22100
Nuclear charge:           1.00000
Electronic charge:       -0.85265
Total charge:             0.14735
Electronic dipole        -0.14802     0.25773     0.09413
Electronic dipole norm     0.31176
Electronic quadrupole    -0.46366    -0.19011    -0.12429    -0.18753     0.15343    -0.52915
Isotropic polarizablity (w=0)     0.24072
Electronic polarizability (w=0)     0.24294    -0.13769     0.30109    -0.04605     0.11787     0.17814

----------------
Atomic domain 11
----------------
Domain center:           -8.37200     6.30900     8.66700
Nuclear charge:           1.00000
Electronic charge:       -0.86371
Total charge:             0.13629
Electronic dipole         0.12354    -0.29660    -0.09762
Electronic dipole norm     0.33580
Electronic quadrupole    -0.52813    -0.20996    -0.04720    -0.13774     0.15195    -0.58182
Isotropic polarizablity (w=0)     0.27765
Electronic polarizability (w=0)     0.17380    -0.15586     0.52104     0.01036     0.08988     0.13812

----------------
Atomic domain 12
----------------
Domain center:           -7.19400     5.52400     7.63700
Nuclear charge:           1.00000
Electronic charge:       -0.86900
Total charge:             0.13100
Electronic dipole        -0.25279    -0.06038     0.22527
Electronic dipole norm     0.34394
Electronic quadrupole    -0.30802     0.08116    -0.32623    -0.62493    -0.06651    -0.34217
Isotropic polarizablity (w=0)     0.29955
Electronic polarizability (w=0)     0.38078     0.12725     0.13820    -0.22382    -0.10426     0.37966

----------------
Atomic domain 13
----------------
Domain center:           -7.95700     2.72000     7.46000
Nuclear charge:           1.00000
Electronic charge:       -0.85499
Total charge:             0.14501
Electronic dipole        -0.16422     0.21750    -0.18521
Electronic dipole norm     0.32951
Electronic quadrupole    -0.48613    -0.20283     0.16995    -0.34378    -0.26789    -0.37921
Isotropic polarizablity (w=0)     0.26257
Electronic polarizability (w=0)     0.20265    -0.17596     0.35372     0.12411    -0.13706     0.23135

----------------
Atomic domain 14
----------------
Domain center:           -9.32500     2.97200     6.35300
Nuclear charge:           1.00000
Electronic charge:       -0.86256
Total charge:             0.13744
Electronic dipole         0.26454     0.15876     0.16173
Electronic dipole norm     0.34835
Electronic quadrupole    -0.21539     0.23750     0.24246    -0.52075     0.12276    -0.50291
Isotropic polarizablity (w=0)     0.30257
Electronic polarizability (w=0)     0.37935     0.20568     0.26738     0.22662     0.18238     0.26097

----------------
Atomic domain 15
----------------
Domain center:           -7.81300     3.84600     6.08300
Nuclear charge:           1.00000
Electronic charge:       -0.87074
Total charge:             0.12926
Electronic dipole        -0.21322    -0.12885     0.23779
Electronic dipole norm     0.34439
Electronic quadrupole    -0.39819     0.15305    -0.28358    -0.55396    -0.17831    -0.32199
Isotropic polarizablity (w=0)     0.28371
Electronic polarizability (w=0)     0.28581     0.07153     0.13611    -0.25828    -0.08208     0.42920

----------------
Atomic domain 16
----------------
Domain center:           -9.75900     4.13300     8.41000
Nuclear charge:           1.00000
Electronic charge:       -0.87553
Total charge:             0.12447
Electronic dipole         0.20750     0.12976    -0.22189
Electronic dipole norm     0.33035
Electronic quadrupole    -0.38716     0.14951    -0.22899    -0.56291    -0.14942    -0.36501
Isotropic polarizablity (w=0)     0.28869
Electronic polarizability (w=0)     0.33362     0.12444     0.17419    -0.19199    -0.14317     0.35826

----------------
Atomic domain 17
----------------
Domain center:          -10.32000     6.25700     7.49500
Nuclear charge:           1.00000
Electronic charge:       -0.86081
Total charge:             0.13919
Electronic dipole         0.13382    -0.24332    -0.20938
Electronic dipole norm     0.34778
Electronic quadrupole    -0.53639    -0.16595    -0.16161    -0.31825     0.29435    -0.37222
Isotropic polarizablity (w=0)     0.27962
Electronic polarizability (w=0)     0.22460    -0.20365     0.38536    -0.10373     0.19133     0.22889

----------------
Atomic domain 18
----------------
Domain center:           -9.28900     5.99600     6.09800
Nuclear charge:           1.00000
Electronic charge:       -0.86613
Total charge:             0.13387
Electronic dipole        -0.19518    -0.15109     0.23671
Electronic dipole norm     0.34199
Electronic quadrupole    -0.41700     0.17684    -0.26953    -0.50630    -0.19851    -0.33937
Isotropic polarizablity (w=0)     0.28402
Electronic polarizability (w=0)     0.20835     0.10505     0.23797    -0.16341    -0.22659     0.40573

----------------
Atomic domain 19
----------------
Domain center:          -10.71900     4.95700     6.38500
Nuclear charge:           1.00000
Electronic charge:       -0.85664
Total charge:             0.14336
Electronic dipole         0.25446     0.17174     0.15000
Electronic dipole norm     0.34168
Electronic quadrupole    -0.26582     0.25791     0.19252    -0.45594     0.14617    -0.51717
Isotropic polarizablity (w=0)     0.29437
Electronic polarizability (w=0)     0.46974     0.16147     0.17994     0.24801     0.10138     0.23342

----------------
Atomic domain 20
----------------
Domain center:           -8.75800     3.05800    10.78000
Nuclear charge:           6.00000
Electronic charge:       -5.60760
Total charge:             0.39240
Electronic dipole         0.05714    -0.03795    -0.06488
Electronic dipole norm     0.09442
Electronic quadrupole    -2.62356    -0.11578    -0.76465    -1.78228     0.22452    -3.00905
Isotropic polarizablity (w=0)     1.12219
Electronic polarizability (w=0)     1.07642     0.30290     1.37050    -0.39067    -0.27555     0.91965

----------------
Atomic domain 21
----------------
Domain center:           -9.96500     2.88000    11.70600
Nuclear charge:           6.00000
Electronic charge:       -6.47745
Total charge:            -0.47745
Electronic dipole         0.11772    -0.02644    -0.11114
Electronic dipole norm     0.16404
Electronic quadrupole    -3.37683    -0.04425    -0.18113    -3.34596     0.03224    -3.27748
Isotropic polarizablity (w=0)     0.96475
Electronic polarizability (w=0)     1.13597     0.16315     0.71810    -0.40884    -0.13075     1.04019

----------------
Atomic domain 22
----------------
Domain center:           -8.20600     2.08000    10.28200
Nuclear charge:           8.00000
Electronic charge:       -8.49452
Total charge:            -0.49452
Electronic dipole        -0.24008     0.42920     0.22385
Electronic dipole norm     0.54033
Electronic quadrupole    -3.85718    -0.35222    -0.04431    -3.49776     0.30360    -3.84133
Isotropic polarizablity (w=0)     0.48962
Electronic polarizability (w=0)     0.33138    -0.21530     0.79796    -0.09207     0.17534     0.33952

----------------
Atomic domain 23
----------------
Domain center:          -10.24200     3.80500    12.21100
Nuclear charge:           1.00000
Electronic charge:       -0.86249
Total charge:             0.13751
Electronic dipole         0.08601    -0.28751    -0.15641
Electronic dipole norm     0.33842
Electronic quadrupole    -0.58896    -0.15391    -0.08233    -0.15584     0.27093    -0.48552
Isotropic polarizablity (w=0)     0.27815
Electronic polarizability (w=0)     0.18123    -0.13777     0.38476    -0.13682     0.21990     0.26846

----------------
Atomic domain 24
----------------
Domain center:          -10.72734     2.57886    11.01821
Nuclear charge:           1.00000
Electronic charge:       -0.82482
Total charge:             0.17518
Electronic dipole         0.25426     0.09131     0.20904
Electronic dipole norm     0.34159
Electronic quadrupole    -0.22491     0.14200     0.32505    -0.52172     0.12670    -0.30522
Isotropic polarizablity (w=0)     0.26798
Electronic polarizability (w=0)     0.44201     0.15576     0.13468     0.20823     0.07972     0.22724

----------------
Atomic domain 25
----------------
Domain center:           -9.79710     2.09081    12.40877
Nuclear charge:           1.00000
Electronic charge:       -0.82743
Total charge:             0.17257
Electronic dipole        -0.05332     0.23889    -0.21929
Electronic dipole norm     0.32863
Electronic quadrupole    -0.57801    -0.07573     0.07344    -0.22661    -0.32165    -0.30429
Isotropic polarizablity (w=0)     0.29312
Electronic polarizability (w=0)     0.08686    -0.00054     0.40380    -0.00340    -0.32571     0.38871

----------------
Atomic domain 26
----------------
Domain center:           -5.05300     5.05800    10.20100
Nuclear charge:           7.00000
Electronic charge:       -7.30077
Total charge:            -0.30077
Electronic dipole        -0.02644     0.22089     0.09300
Electronic dipole norm     0.24113
Electronic quadrupole    -2.47314    -0.10062     0.26554    -2.82063     0.41169    -3.94191
Isotropic polarizablity (w=0)     0.89078
Electronic polarizability (w=0)     1.80599     0.07239     0.50936     0.30958     0.10128     0.35700

----------------
Atomic domain 27
----------------
Domain center:           -3.92600     5.81800    10.67600
Nuclear charge:           6.00000
Electronic charge:       -6.33504
Total charge:            -0.33504
Electronic dipole        -0.20983    -0.12838    -0.07913
Electronic dipole norm     0.25840
Electronic quadrupole    -2.91589     0.22630     0.14332    -3.20372     0.11899    -3.23384
Isotropic polarizablity (w=0)     0.92582
Electronic polarizability (w=0)     1.33658     0.29588     0.70630     0.24173     0.08172     0.73458

----------------
Atomic domain 28
----------------
Domain center:           -4.88800     4.13100     9.94200
Nuclear charge:           1.00000
Electronic charge:       -0.71822
Total charge:             0.28178
Electronic dipole        -0.04053     0.22018     0.06355
Electronic dipole norm     0.23272
Electronic quadrupole    -0.50138    -0.08977    -0.02929    -0.10427     0.10459    -0.46735
Isotropic polarizablity (w=0)     0.19777
Electronic polarizability (w=0)     0.13418    -0.08058     0.35821    -0.00860     0.07323     0.10092

----------------
Atomic domain 29
----------------
Domain center:           -4.27800     6.78700    11.01100
Nuclear charge:           1.00000
Electronic charge:       -0.82385
Total charge:             0.17615
Electronic dipole         0.09640    -0.28767    -0.09330
Electronic dipole norm     0.31742
Electronic quadrupole    -0.45523    -0.17118    -0.04400    -0.06551     0.18157    -0.52624
Isotropic polarizablity (w=0)     0.23147
Electronic polarizability (w=0)     0.07930    -0.02125     0.47967    -0.00795     0.16135     0.13544

----------------
Atomic domain 30
----------------
Domain center:           -3.18606     5.90550     9.90806
Nuclear charge:           1.00000
Electronic charge:       -0.84587
Total charge:             0.15413
Electronic dipole        -0.22588    -0.03056     0.23441
Electronic dipole norm     0.32696
Electronic quadrupole    -0.29249     0.03404    -0.30108    -0.60283    -0.03302    -0.26638
Isotropic polarizablity (w=0)     0.28677
Electronic polarizability (w=0)     0.46988     0.06985     0.08559    -0.27834    -0.04264     0.30484

----------------
Atomic domain 31
----------------
Domain center:           -3.46491     5.33729    11.51339
Nuclear charge:           1.00000
Electronic charge:       -0.84552
Total charge:             0.15448
Electronic dipole        -0.14306     0.15431    -0.25775
Electronic dipole norm     0.33274
Electronic quadrupole    -0.46888    -0.11904     0.20812    -0.46656    -0.23410    -0.21716
Isotropic polarizablity (w=0)     0.28989
Electronic polarizability (w=0)     0.28243    -0.11126     0.15762     0.26179    -0.16923     0.42963

---------
Molecular
---------
Domain center:           -7.70207     4.53633     9.51504
Nuclear charge:         102.00000
Electronic charge:     -102.00000
Total charge:             0.00000
Electronic dipole        -0.06414    -0.06397     0.06288
Gauge   dipole            0.49934     0.12930     0.06270
Total   dipole            0.43520     0.06533     0.12558
Electronic quadrupole -1300.24605  -441.35239  -352.16717  -733.07606    97.67623 -1025.35465
Nuclear    quadrupole  1252.92520   440.23842   350.78121   661.87850   -99.06485   968.01452
Total      quadrupole   -47.32085    -1.11397    -1.38595   -71.19756    -1.38862   -57.34013
Polarizability av (0)       17.09180
Polarizability (0)          18.77162     0.94254    16.51609     0.44667    -0.15917    15.98770
Time used in Loprop              :      6.82 (cpu)       5.01 (wall)
