AA
27 2 2 1
1    -7.8970000000     7.8970000000    13.3210000000    -0.3320641291    -0.0279284297    -0.2398539995     0.0079176425    -2.9108707285    -0.0033230067     0.7457646705    -2.6784159516     0.0001047875    -3.7441061875     1.5083559599    -0.1071868910     0.7006096294     0.5259386277    -0.0793330013     0.7188452959
1    -6.8710000000     7.0700000000    13.9390000000    -0.0583929861    -0.0107221627     0.1855133847     0.0103187764    -2.5054107584    -0.0905701167     0.0856563866    -2.8018702432    -0.2711434265    -2.7883821306     1.9182642209    -0.1602600554     0.0440572422     0.5572032698    -0.2735283845     1.3134898340
1    -7.1480000000     6.7750000000    15.3970000000     0.3711588335    -0.0301632524    -0.0671173137     0.1000641309    -3.3891016475    -0.4325355177    -0.2692458079    -1.7852132336    -0.1768183558    -2.2699520654     0.8341214415    -0.2033722875    -0.3629593484     1.0072428960     0.1464997019     1.5527988371
1    -6.9720000000     5.6320000000    15.8390000000    -0.4718405545    -0.0845529334     0.4893844691    -0.1813433996    -3.8661440789    -0.0767812073     0.1201524031    -3.2716175368    -0.2881244064    -4.0097730118     0.2786859864    -0.1147046363    -0.0071326393     0.8548009810    -0.2175870633     0.3666064673
1    -5.4990000000     7.7350000000    13.7510000000    -0.3513017702    -0.1244757445    -0.1724587922     0.0720970970    -2.3585598139    -0.1545982422     0.2285071292    -3.0805824748    -0.1972198875    -3.2539464775     2.2125532253    -0.4677869784     0.0441592717     1.1075828326    -0.1836207142     0.6832246909
1    -4.0760000000     6.7720000000    14.3220000000     0.0361617616    -0.6808805841    -0.1531139048    -0.5006028010    -8.4300927258    -0.8671750023     0.8840150048    -6.9004479069     0.8385408333    -9.2907007251     2.3569656547    -0.8256208755     0.1467778869     2.8768471413     0.8267789956     1.6083685386
1    -7.7880000000     8.8740000000    13.4180000000     0.2600803349    -0.0233693716    -0.2380465111    -0.0217135367    -0.5321453131     0.0549633344    -0.0044571145    -0.0783796912     0.0411393976    -0.5249396691     0.1335158328     0.0173431495     0.0197388575     0.4180965482     0.0138839824     0.1080472952
1    -6.8230000000     6.1110000000    13.4410000000     0.1845477265     0.0005291689     0.2615654210     0.1447744920    -0.4371073535    -0.0862339272     0.0085674817    -0.1080050801     0.2267691071    -0.4518935196     0.1909774995    -0.0526987918    -0.0091682059     0.3343480937     0.1514239489     0.1891649787
1    -5.4200000000     8.0380000000    12.7160000000     0.1520902481    -0.0244662334    -0.0815217498     0.3016369386    -0.5991674019     0.0210276867    -0.0694861380    -0.5944193165    -0.1292116626    -0.0910988332     0.1500850771     0.0075617307    -0.0538956617     0.1707675153    -0.2195492210     0.5326813856
1    -5.5580000000     8.6620000000    14.3220000000     0.1422022612     0.0057304456    -0.2910935251    -0.1786849249    -0.6263192610    -0.0275262800    -0.0276299153    -0.1098947253     0.2934945274    -0.4270179425     0.1547505583    -0.0361945663    -0.0183987365     0.5854178903     0.2395852323     0.1957572100
1    -8.9520000000     7.3600000000    12.7060000000     0.3954421063     0.0282894779    -0.0944100795     0.0034364459    -2.5324746310     0.1597834167     0.6276539836    -1.7016330859     0.0251718969    -3.1817331178     1.4788553518    -0.0184843961     0.5682629628     0.9753265770    -0.0511857109     0.8979414823
1    -9.8980000000     8.3560000000    12.0590000000    -0.4950702773     0.0719666713    -0.1388441287     0.0412437436    -3.3786638177    -0.1151878121     0.0865478557    -3.1878057292    -0.0365228887    -3.4352942221     1.0851632957    -0.3406462453     0.2838024367     0.9247486168    -0.2240913959     0.8595771132
1    -9.1510000000     6.1650000000    12.6210000000    -0.4554537329     0.0886682552     0.5252716835     0.0405881758    -3.9703063203     0.1643482931    -0.1046299466    -3.1513980932     0.0869116414    -3.8693639647     0.3372797067     0.2024654677     0.0568410398     0.8701028236     0.0950441477     0.2592585487
1   -10.8620000000     7.9250000000    12.0690000000     0.1800743091     0.3163466874     0.1334012976    -0.0079170944    -0.0077644042     0.2522753310    -0.0079969634    -0.4703295268    -0.0004090031    -0.5761294778     0.6522811804     0.1524795238     0.0559805660     0.1199210639     0.0043239994     0.0788619227
1    -9.9216680000     9.3145710000    12.5338480000     0.1432090479    -0.0005980292    -0.3087836946    -0.1564986068    -0.6381131846    -0.0184520228    -0.0125139815    -0.0902289176     0.2600322469    -0.4947951584     0.1170816692    -0.0963349467    -0.0122341408     0.5546342348     0.1627565587     0.1550255302
1    -9.6284470000     8.4664610000    11.0294180000     0.1732132497    -0.0928738766    -0.0417207737     0.3229068669    -0.5456803105     0.0229583898    -0.1744595177    -0.5822033834    -0.0602896813     0.0449682984     0.0884998565     0.0007594454    -0.0512596405     0.0972491323    -0.1102026990     0.6407784127
1    -7.6010000000     7.7610000000    16.1500000000    -0.3123121542     0.0235870793    -0.2397730168     0.0952143935    -3.9820628164    -0.4227707964    -0.3265837967    -2.7454509306    -0.0345098205    -2.5970049890     0.4173901786    -0.2151595289    -0.3674979634     0.6859323551     0.3299401942     1.4382248242
1    -7.8510000000     7.5130000000    17.5730000000    -0.3326817357     0.0504689489     0.0150365907    -0.2425156231    -3.2985178779     0.0117688245    -0.1520685811    -3.3152877707    -0.0355389613    -2.7407044493     0.7123698251     0.0011448773    -0.2201225991     0.5670923693     0.0465870178     1.4315599238
1    -7.7910000000     8.6390000000    15.7350000000     0.2575887952     0.0441895087    -0.2174773634     0.0917781234    -0.5180673694    -0.0790742592     0.0368568573    -0.1642980460    -0.1381437334    -0.4514115779     0.1219271818    -0.0791408037     0.0150011316     0.3747344306    -0.0895596149     0.1447091811
1    -7.0980000000     6.8150000000    17.8940000000     0.1763453505    -0.2236078713     0.2080434848    -0.1057261959    -0.2751706724    -0.2831904572     0.1271049140    -0.2924486060    -0.1106007015    -0.4800285809     0.2691783373    -0.1718633882     0.1458373346     0.2140852009    -0.1430014285     0.2124656082
1    -8.8193820000     7.0989870000    17.7620210000     0.1576993388     0.2917889307     0.1234151847    -0.0554384004    -0.0976654300     0.2173573335    -0.0836448927    -0.5053457886    -0.0420530343    -0.5617851277     0.5342055475     0.1620141927    -0.1716089869     0.1227837043    -0.0618355564     0.1605099648
1    -7.7588090000     8.4088670000    18.1507740000     0.1526052248    -0.0289940692    -0.2880579060    -0.1691619317    -0.6004537358     0.0473841677     0.0206507046    -0.1464415554     0.3005357415    -0.4289561802     0.0789879898     0.0191954499     0.0078519891     0.4441067934     0.3032496578     0.3370787750
1    -4.2880000000     4.9670000000    13.3690000000     0.0536523167     0.4668933131     0.5872448830    -0.3434225688    -9.2338687253     0.4793990557    -1.1737765834    -7.6417155404     1.1079421538    -7.5628256388     1.5399218788    -0.3550967979    -0.7927448150     2.7015365742     0.9480513382     2.3157136253
1    -3.2680000000     5.1320000000    11.8710000000    -0.5209220088    -0.0475926673    -0.0144418413     0.0907051989    -3.3059295016     0.0986140039    -0.4464673249    -3.4279956057    -0.1367079116    -2.8740824228     1.1543021857    -0.0830480209    -0.7085796712     0.6520163543     0.1179602384     1.6015799056
1    -2.9240000000     4.1570000000    11.5610000000     0.1693425289    -0.0961474452     0.2940325686     0.0908903122    -0.5451194159    -0.1884497890    -0.0517649656    -0.0422092124     0.1798462624    -0.5214828643     0.1898355135    -0.2442910016    -0.1249181382     0.5639074907     0.2351853527     0.1998650556
1    -2.4250000000     5.7630000000    12.0820000000     0.1656719886    -0.2605992564    -0.1902595261    -0.0725812473    -0.2305440138     0.2909135513     0.1285027506    -0.3734952724     0.0904679223    -0.5622116221     0.5452471001     0.2223608131    -0.0331691139     0.1625406973    -0.0025127587     0.0965917503
1    -3.7290880000     5.6127090000    11.0336130000     0.1589539267     0.1532800277    -0.1403280333     0.2487364664    -0.4570142488    -0.1270768937     0.2161759290    -0.4845474006    -0.2041061272    -0.2599049615     0.1233097178    -0.0544337592     0.1238850565     0.1188879043    -0.1607600525     0.5227457686


---------------
Atomic domain 1
---------------
Domain center:           -7.89700     7.89700    13.32100
Nuclear charge:           7.00000
Electronic charge:       -7.33206
Total charge:            -0.33206
Electronic dipole        -0.02793    -0.23985     0.00792
Electronic dipole norm     0.24160
Electronic quadrupole    -2.91087    -0.00332     0.74576    -2.67842     0.00010    -3.74411
Isotropic polarizablity (w=0)     0.91771
Electronic polarizability (w=0)     1.50836    -0.10719     0.52594     0.70061    -0.07933     0.71885

---------------
Atomic domain 2
---------------
Domain center:           -6.87100     7.07000    13.93900
Nuclear charge:           6.00000
Electronic charge:       -6.05839
Total charge:            -0.05839
Electronic dipole        -0.01072     0.18551     0.01032
Electronic dipole norm     0.18611
Electronic quadrupole    -2.50541    -0.09057     0.08566    -2.80187    -0.27114    -2.78838
Isotropic polarizablity (w=0)     1.26299
Electronic polarizability (w=0)     1.91826    -0.16026     0.55720     0.04406    -0.27353     1.31349

---------------
Atomic domain 3
---------------
Domain center:           -7.14800     6.77500    15.39700
Nuclear charge:           6.00000
Electronic charge:       -5.62884
Total charge:             0.37116
Electronic dipole        -0.03016    -0.06712     0.10006
Electronic dipole norm     0.12421
Electronic quadrupole    -3.38910    -0.43254    -0.26925    -1.78521    -0.17682    -2.26995
Isotropic polarizablity (w=0)     1.13139
Electronic polarizability (w=0)     0.83412    -0.20337     1.00724    -0.36296     0.14650     1.55280

---------------
Atomic domain 4
---------------
Domain center:           -6.97200     5.63200    15.83900
Nuclear charge:           8.00000
Electronic charge:       -8.47184
Total charge:            -0.47184
Electronic dipole        -0.08455     0.48938    -0.18134
Electronic dipole norm     0.52871
Electronic quadrupole    -3.86614    -0.07678     0.12015    -3.27162    -0.28812    -4.00977
Isotropic polarizablity (w=0)     0.50003
Electronic polarizability (w=0)     0.27869    -0.11470     0.85480    -0.00713    -0.21759     0.36661

---------------
Atomic domain 5
---------------
Domain center:           -5.49900     7.73500    13.75100
Nuclear charge:           6.00000
Electronic charge:       -6.35130
Total charge:            -0.35130
Electronic dipole        -0.12448    -0.17246     0.07210
Electronic dipole norm     0.22458
Electronic quadrupole    -2.35856    -0.15460     0.22851    -3.08058    -0.19722    -3.25395
Isotropic polarizablity (w=0)     1.33445
Electronic polarizability (w=0)     2.21255    -0.46779     1.10758     0.04416    -0.18362     0.68322

---------------
Atomic domain 6
---------------
Domain center:           -4.07600     6.77200    14.32200
Nuclear charge:          16.00000
Electronic charge:      -15.96384
Total charge:             0.03616
Electronic dipole        -0.68088    -0.15311    -0.50060
Electronic dipole norm     0.85886
Electronic quadrupole    -8.43009    -0.86718     0.88402    -6.90045     0.83854    -9.29070
Isotropic polarizablity (w=0)     2.28073
Electronic polarizability (w=0)     2.35697    -0.82562     2.87685     0.14678     0.82678     1.60837

---------------
Atomic domain 7
---------------
Domain center:           -7.78800     8.87400    13.41800
Nuclear charge:           1.00000
Electronic charge:       -0.73992
Total charge:             0.26008
Electronic dipole        -0.02337    -0.23805    -0.02171
Electronic dipole norm     0.24017
Electronic quadrupole    -0.53215     0.05496    -0.00446    -0.07838     0.04114    -0.52494
Isotropic polarizablity (w=0)     0.21989
Electronic polarizability (w=0)     0.13352     0.01734     0.41810     0.01974     0.01388     0.10805

---------------
Atomic domain 8
---------------
Domain center:           -6.82300     6.11100    13.44100
Nuclear charge:           1.00000
Electronic charge:       -0.81545
Total charge:             0.18455
Electronic dipole         0.00053     0.26157     0.14477
Electronic dipole norm     0.29896
Electronic quadrupole    -0.43711    -0.08623     0.00857    -0.10801     0.22677    -0.45189
Isotropic polarizablity (w=0)     0.23816
Electronic polarizability (w=0)     0.19098    -0.05270     0.33435    -0.00917     0.15142     0.18916

---------------
Atomic domain 9
---------------
Domain center:           -5.42000     8.03800    12.71600
Nuclear charge:           1.00000
Electronic charge:       -0.84791
Total charge:             0.15209
Electronic dipole        -0.02447    -0.08152     0.30164
Electronic dipole norm     0.31342
Electronic quadrupole    -0.59917     0.02103    -0.06949    -0.59442    -0.12921    -0.09110
Isotropic polarizablity (w=0)     0.28451
Electronic polarizability (w=0)     0.15009     0.00756     0.17077    -0.05390    -0.21955     0.53268

----------------
Atomic domain 10
----------------
Domain center:           -5.55800     8.66200    14.32200
Nuclear charge:           1.00000
Electronic charge:       -0.85780
Total charge:             0.14220
Electronic dipole         0.00573    -0.29109    -0.17868
Electronic dipole norm     0.34161
Electronic quadrupole    -0.62632    -0.02753    -0.02763    -0.10989     0.29349    -0.42702
Isotropic polarizablity (w=0)     0.31198
Electronic polarizability (w=0)     0.15475    -0.03619     0.58542    -0.01840     0.23959     0.19576

----------------
Atomic domain 11
----------------
Domain center:           -8.95200     7.36000    12.70600
Nuclear charge:           6.00000
Electronic charge:       -5.60456
Total charge:             0.39544
Electronic dipole         0.02829    -0.09441     0.00344
Electronic dipole norm     0.09862
Electronic quadrupole    -2.53247     0.15978     0.62765    -1.70163     0.02517    -3.18173
Isotropic polarizablity (w=0)     1.11737
Electronic polarizability (w=0)     1.47886    -0.01848     0.97533     0.56826    -0.05119     0.89794

----------------
Atomic domain 12
----------------
Domain center:           -9.89800     8.35600    12.05900
Nuclear charge:           6.00000
Electronic charge:       -6.49507
Total charge:            -0.49507
Electronic dipole         0.07197    -0.13884     0.04124
Electronic dipole norm     0.16173
Electronic quadrupole    -3.37866    -0.11519     0.08655    -3.18781    -0.03652    -3.43529
Isotropic polarizablity (w=0)     0.95650
Electronic polarizability (w=0)     1.08516    -0.34065     0.92475     0.28380    -0.22409     0.85958

----------------
Atomic domain 13
----------------
Domain center:           -9.15100     6.16500    12.62100
Nuclear charge:           8.00000
Electronic charge:       -8.45545
Total charge:            -0.45545
Electronic dipole         0.08867     0.52527     0.04059
Electronic dipole norm     0.53425
Electronic quadrupole    -3.97031     0.16435    -0.10463    -3.15140     0.08691    -3.86936
Isotropic polarizablity (w=0)     0.48888
Electronic polarizability (w=0)     0.33728     0.20247     0.87010     0.05684     0.09504     0.25926

----------------
Atomic domain 14
----------------
Domain center:          -10.86200     7.92500    12.06900
Nuclear charge:           1.00000
Electronic charge:       -0.81993
Total charge:             0.18007
Electronic dipole         0.31635     0.13340    -0.00792
Electronic dipole norm     0.34341
Electronic quadrupole    -0.00776     0.25228    -0.00800    -0.47033    -0.00041    -0.57613
Isotropic polarizablity (w=0)     0.28369
Electronic polarizability (w=0)     0.65228     0.15248     0.11992     0.05598     0.00432     0.07886

----------------
Atomic domain 15
----------------
Domain center:           -9.92167     9.31457    12.53385
Nuclear charge:           1.00000
Electronic charge:       -0.85679
Total charge:             0.14321
Electronic dipole        -0.00060    -0.30878    -0.15650
Electronic dipole norm     0.34618
Electronic quadrupole    -0.63811    -0.01845    -0.01251    -0.09023     0.26003    -0.49480
Isotropic polarizablity (w=0)     0.27558
Electronic polarizability (w=0)     0.11708    -0.09633     0.55463    -0.01223     0.16276     0.15503

----------------
Atomic domain 16
----------------
Domain center:           -9.62845     8.46646    11.02942
Nuclear charge:           1.00000
Electronic charge:       -0.82679
Total charge:             0.17321
Electronic dipole        -0.09287    -0.04172     0.32291
Electronic dipole norm     0.33858
Electronic quadrupole    -0.54568     0.02296    -0.17446    -0.58220    -0.06029     0.04497
Isotropic polarizablity (w=0)     0.27551
Electronic polarizability (w=0)     0.08850     0.00076     0.09725    -0.05126    -0.11020     0.64078

----------------
Atomic domain 17
----------------
Domain center:           -7.60100     7.76100    16.15000
Nuclear charge:           7.00000
Electronic charge:       -7.31231
Total charge:            -0.31231
Electronic dipole         0.02359    -0.23977     0.09521
Electronic dipole norm     0.25906
Electronic quadrupole    -3.98206    -0.42277    -0.32658    -2.74545    -0.03451    -2.59700
Isotropic polarizablity (w=0)     0.84718
Electronic polarizability (w=0)     0.41739    -0.21516     0.68593    -0.36750     0.32994     1.43822

----------------
Atomic domain 18
----------------
Domain center:           -7.85100     7.51300    17.57300
Nuclear charge:           6.00000
Electronic charge:       -6.33268
Total charge:            -0.33268
Electronic dipole         0.05047     0.01504    -0.24252
Electronic dipole norm     0.24817
Electronic quadrupole    -3.29852     0.01177    -0.15207    -3.31529    -0.03554    -2.74070
Isotropic polarizablity (w=0)     0.90367
Electronic polarizability (w=0)     0.71237     0.00114     0.56709    -0.22012     0.04659     1.43156

----------------
Atomic domain 19
----------------
Domain center:           -7.79100     8.63900    15.73500
Nuclear charge:           1.00000
Electronic charge:       -0.74241
Total charge:             0.25759
Electronic dipole         0.04419    -0.21748     0.09178
Electronic dipole norm     0.24015
Electronic quadrupole    -0.51807    -0.07907     0.03686    -0.16430    -0.13814    -0.45141
Isotropic polarizablity (w=0)     0.21379
Electronic polarizability (w=0)     0.12193    -0.07914     0.37473     0.01500    -0.08956     0.14471

----------------
Atomic domain 20
----------------
Domain center:           -7.09800     6.81500    17.89400
Nuclear charge:           1.00000
Electronic charge:       -0.82365
Total charge:             0.17635
Electronic dipole        -0.22361     0.20804    -0.10573
Electronic dipole norm     0.32320
Electronic quadrupole    -0.27517    -0.28319     0.12710    -0.29245    -0.11060    -0.48003
Isotropic polarizablity (w=0)     0.23191
Electronic polarizability (w=0)     0.26918    -0.17186     0.21409     0.14584    -0.14300     0.21247

----------------
Atomic domain 21
----------------
Domain center:           -8.81938     7.09899    17.76202
Nuclear charge:           1.00000
Electronic charge:       -0.84230
Total charge:             0.15770
Electronic dipole         0.29179     0.12342    -0.05544
Electronic dipole norm     0.32163
Electronic quadrupole    -0.09767     0.21736    -0.08364    -0.50535    -0.04205    -0.56179
Isotropic polarizablity (w=0)     0.27250
Electronic polarizability (w=0)     0.53421     0.16201     0.12278    -0.17161    -0.06184     0.16051

----------------
Atomic domain 22
----------------
Domain center:           -7.75881     8.40887    18.15077
Nuclear charge:           1.00000
Electronic charge:       -0.84739
Total charge:             0.15261
Electronic dipole        -0.02899    -0.28806    -0.16916
Electronic dipole norm     0.33531
Electronic quadrupole    -0.60045     0.04738     0.02065    -0.14644     0.30054    -0.42896
Isotropic polarizablity (w=0)     0.28672
Electronic polarizability (w=0)     0.07899     0.01920     0.44411     0.00785     0.30325     0.33708

----------------
Atomic domain 23
----------------
Domain center:           -4.28800     4.96700    13.36900
Nuclear charge:          16.00000
Electronic charge:      -15.94635
Total charge:             0.05365
Electronic dipole         0.46689     0.58724    -0.34342
Electronic dipole norm     0.82510
Electronic quadrupole    -9.23387     0.47940    -1.17378    -7.64172     1.10794    -7.56283
Isotropic polarizablity (w=0)     2.18572
Electronic polarizability (w=0)     1.53992    -0.35510     2.70154    -0.79274     0.94805     2.31571

----------------
Atomic domain 24
----------------
Domain center:           -3.26800     5.13200    11.87100
Nuclear charge:           6.00000
Electronic charge:       -6.52092
Total charge:            -0.52092
Electronic dipole        -0.04759    -0.01444     0.09071
Electronic dipole norm     0.10345
Electronic quadrupole    -3.30593     0.09861    -0.44647    -3.42800    -0.13671    -2.87408
Isotropic polarizablity (w=0)     1.13597
Electronic polarizability (w=0)     1.15430    -0.08305     0.65202    -0.70858     0.11796     1.60158

----------------
Atomic domain 25
----------------
Domain center:           -2.92400     4.15700    11.56100
Nuclear charge:           1.00000
Electronic charge:       -0.83066
Total charge:             0.16934
Electronic dipole        -0.09615     0.29403     0.09089
Electronic dipole norm     0.32243
Electronic quadrupole    -0.54512    -0.18845    -0.05176    -0.04221     0.17985    -0.52148
Isotropic polarizablity (w=0)     0.31787
Electronic polarizability (w=0)     0.18984    -0.24429     0.56391    -0.12492     0.23519     0.19987

----------------
Atomic domain 26
----------------
Domain center:           -2.42500     5.76300    12.08200
Nuclear charge:           1.00000
Electronic charge:       -0.83433
Total charge:             0.16567
Electronic dipole        -0.26060    -0.19026    -0.07258
Electronic dipole norm     0.33072
Electronic quadrupole    -0.23054     0.29091     0.12850    -0.37350     0.09047    -0.56221
Isotropic polarizablity (w=0)     0.26813
Electronic polarizability (w=0)     0.54525     0.22236     0.16254    -0.03317    -0.00251     0.09659

----------------
Atomic domain 27
----------------
Domain center:           -3.72909     5.61271    11.03361
Nuclear charge:           1.00000
Electronic charge:       -0.84105
Total charge:             0.15895
Electronic dipole         0.15328    -0.14033     0.24874
Electronic dipole norm     0.32412
Electronic quadrupole    -0.45701    -0.12708     0.21618    -0.48455    -0.20411    -0.25990
Isotropic polarizablity (w=0)     0.25498
Electronic polarizability (w=0)     0.12331    -0.05443     0.11889     0.12389    -0.16076     0.52275

---------
Molecular
---------
Domain center:           -6.48104     6.74015    14.02167
Nuclear charge:         118.00000
Electronic charge:     -118.00000
Total charge:             0.00000
Electronic dipole        -0.21523    -0.09439    -0.37330
Gauge   dipole            0.30926     2.80332    -0.08875
Total   dipole            0.09403     2.70893    -0.46205
Electronic quadrupole -1964.85934   631.04944   124.09898  -635.59965  -140.16026 -1203.62854
Nuclear    quadrupole  1896.74594  -639.96872  -130.86685   570.96610   144.23957  1140.83046
Total      quadrupole   -68.11340    -8.91929    -6.76787   -64.63355     4.07931   -62.79808
Polarizability av (0)       18.79781
Polarizability (0)          19.18411    -2.84100    18.58785    -0.72088     1.80450    18.62147
Time used in Loprop              :      5.72 (cpu)       4.14 (wall)
