! Generated by PyFraME
@COORDINATES
17
AA
N      3.32600000     1.54800000    -0.00000000       1
H      3.90900000     0.72400000    -0.00000000       2
C      3.97000000     2.84600000    -0.00000000       3
H      3.67200000     3.40000000    -0.89000000       4
C      3.57700000     3.65400000     1.23200000       5
H      2.49700000     3.80100000     1.24100000       6
H      3.87700000     3.11600000     2.13100000       7
C      4.27400000     5.01000000     1.19500000       8
H      5.35400000     4.86300000     1.18600000       9
H      3.97400000     5.54800000     0.29600000      10
S      3.81700000     5.98100000     2.65200000      11
C      4.75300000     7.46300000     2.34100000      12
H      4.43400000     7.90400000     1.39700000      13
H      4.58600000     8.17500000     3.14900000      14
H      5.81400000     7.21900000     2.28700000      15
C      5.48600000     2.70500000    -0.00000000      16
O      6.00900000     1.59300000    -0.00000000      17
@MULTIPOLES
ORDER 0
17
1      -0.40622569
2       0.24854785
3       0.02215387
4       0.09627115
5      -0.03593334
6       0.04572740
7       0.04572740
8      -0.22747619
9       0.12636799
10      0.12636799
11     -0.12002691
12     -0.52476129
13      0.19070708
14      0.19070708
15      0.19070708
16      0.53365361
17     -0.50251506
@POLARIZABILITIES
ORDER 1 1
17
1       7.40800074     0.00000000     0.00000000     7.40800074     0.00000000     7.40800074
2       1.20581088     0.00000000     0.00000000     1.20581088     0.00000000     1.20581088
3       8.58299041     0.00000000     0.00000000     8.58299041     0.00000000     8.58299041
4       1.61644671     0.00000000     0.00000000     1.61644671     0.00000000     1.61644671
5       8.35766689     0.00000000     0.00000000     8.35766689     0.00000000     8.35766689
6       1.24860691     0.00000000     0.00000000     1.24860691     0.00000000     1.24860691
7       1.24860691     0.00000000     0.00000000     1.24860691     0.00000000     1.24860691
8       9.28829290     0.00000000     0.00000000     9.28829290     0.00000000     9.28829290
9       1.41313117     0.00000000     0.00000000     1.41313117     0.00000000     1.41313117
10      1.41313117     0.00000000     0.00000000     1.41313117     0.00000000     1.41313117
11     18.82879417     0.00000000     0.00000000    18.82879417     0.00000000    18.82879417
12      8.68983283     0.00000000     0.00000000     8.68983283     0.00000000     8.68983283
13      1.45316314     0.00000000     0.00000000     1.45316314     0.00000000     1.45316314
14      1.45316314     0.00000000     0.00000000     1.45316314     0.00000000     1.45316314
15      1.45316314     0.00000000     0.00000000     1.45316314     0.00000000     1.45316314
16      8.11071158     0.00000000     0.00000000     8.11071158     0.00000000     8.11071158
17      5.68224449     0.00000000     0.00000000     5.68224449     0.00000000     5.68224449
EXCLISTS
17 17
1     2   3   4   5   6   7   8   9  10  11  12  13  14  15  16  17
2     1   3   4   5   6   7   8   9  10  11  12  13  14  15  16  17
3     1   2   4   5   6   7   8   9  10  11  12  13  14  15  16  17
4     1   2   3   5   6   7   8   9  10  11  12  13  14  15  16  17
5     1   2   3   4   6   7   8   9  10  11  12  13  14  15  16  17
6     1   2   3   4   5   7   8   9  10  11  12  13  14  15  16  17
7     1   2   3   4   5   6   8   9  10  11  12  13  14  15  16  17
8     1   2   3   4   5   6   7   9  10  11  12  13  14  15  16  17
9     1   2   3   4   5   6   7   8  10  11  12  13  14  15  16  17
10    1   2   3   4   5   6   7   8   9  11  12  13  14  15  16  17
11    1   2   3   4   5   6   7   8   9  10  12  13  14  15  16  17
12    1   2   3   4   5   6   7   8   9  10  11  13  14  15  16  17
13    1   2   3   4   5   6   7   8   9  10  11  12  14  15  16  17
14    1   2   3   4   5   6   7   8   9  10  11  12  13  15  16  17
15    1   2   3   4   5   6   7   8   9  10  11  12  13  14  16  17
16    1   2   3   4   5   6   7   8   9  10  11  12  13  14  15  17
17    1   2   3   4   5   6   7   8   9  10  11  12  13  14  15  16
