! Generated by PyFraME
@COORDINATES
17
AA
N      3.32600000     1.54800000    -0.00000000       1
H      3.90900000     0.72400000    -0.00000000       2
C      3.97000000     2.84600000    -0.00000000       3
H      3.67200000     3.40000000    -0.89000000       4
C      3.57700000     3.65400000     1.23200000       5
H      2.49700000     3.80100000     1.24100000       6
C      3.99800000     2.90000000     2.49000000       7
H      5.07800000     2.75300000     2.48100000       8
H      3.71700000     3.47800000     3.37100000       9
H      3.50000000     1.93100000     2.51700000      10
C      4.27400000     5.01000000     1.19500000      11
H      3.97400000     5.54800000     0.29600000      12
H      3.99400000     5.58800000     2.07500000      13
H      5.35400000     4.86300000     1.18600000      14
C      5.48600000     2.70500000    -0.00000000      15
O      6.00900000     1.59300000    -0.00000000      16
O      6.20400000     3.70200000    -0.00000000      17
@MULTIPOLES
ORDER 0
17
1      -0.69666855
2       0.31968720
3       0.14033603
4       0.00324644
5       0.42837578
6      -0.08614701
7      -0.42509892
8       0.07690858
9       0.07690858
10      0.07690858
11     -0.42509892
12      0.07690858
13      0.07690858
14      0.07690858
15      0.91517012
16     -0.81762681
17     -0.81762681
@POLARIZABILITIES
ORDER 1 1
17
1       8.19847241     0.00000000     0.00000000     8.19847241     0.00000000     8.19847241
2       1.42292830     0.00000000     0.00000000     1.42292830     0.00000000     1.42292830
3       9.75552662     0.00000000     0.00000000     9.75552662     0.00000000     9.75552662
4       1.89927027     0.00000000     0.00000000     1.89927027     0.00000000     1.89927027
5       8.28367465     0.00000000     0.00000000     8.28367465     0.00000000     8.28367465
6       1.89384126     0.00000000     0.00000000     1.89384126     0.00000000     1.89384126
7       8.15402198     0.00000000     0.00000000     8.15402198     0.00000000     8.15402198
8       1.51290631     0.00000000     0.00000000     1.51290631     0.00000000     1.51290631
9       1.51290631     0.00000000     0.00000000     1.51290631     0.00000000     1.51290631
10      1.51290631     0.00000000     0.00000000     1.51290631     0.00000000     1.51290631
11      8.15402198     0.00000000     0.00000000     8.15402198     0.00000000     8.15402198
12      1.51290631     0.00000000     0.00000000     1.51290631     0.00000000     1.51290631
13      1.51290631     0.00000000     0.00000000     1.51290631     0.00000000     1.51290631
14      1.51290631     0.00000000     0.00000000     1.51290631     0.00000000     1.51290631
15      9.83886659     0.00000000     0.00000000     9.83886659     0.00000000     9.83886659
16      7.01337802     0.00000000     0.00000000     7.01337802     0.00000000     7.01337802
17      7.01337802     0.00000000     0.00000000     7.01337802     0.00000000     7.01337802
EXCLISTS
17 17
1     2   3   4   5   6   7   8   9  10  11  12  13  14  15  16  17
2     1   3   4   5   6   7   8   9  10  11  12  13  14  15  16  17
3     1   2   4   5   6   7   8   9  10  11  12  13  14  15  16  17
4     1   2   3   5   6   7   8   9  10  11  12  13  14  15  16  17
5     1   2   3   4   6   7   8   9  10  11  12  13  14  15  16  17
6     1   2   3   4   5   7   8   9  10  11  12  13  14  15  16  17
7     1   2   3   4   5   6   8   9  10  11  12  13  14  15  16  17
8     1   2   3   4   5   6   7   9  10  11  12  13  14  15  16  17
9     1   2   3   4   5   6   7   8  10  11  12  13  14  15  16  17
10    1   2   3   4   5   6   7   8   9  11  12  13  14  15  16  17
11    1   2   3   4   5   6   7   8   9  10  12  13  14  15  16  17
12    1   2   3   4   5   6   7   8   9  10  11  13  14  15  16  17
13    1   2   3   4   5   6   7   8   9  10  11  12  14  15  16  17
14    1   2   3   4   5   6   7   8   9  10  11  12  13  15  16  17
15    1   2   3   4   5   6   7   8   9  10  11  12  13  14  16  17
16    1   2   3   4   5   6   7   8   9  10  11  12  13  14  15  17
17    1   2   3   4   5   6   7   8   9  10  11  12  13  14  15  16
