! Generated by PyFraME
@COORDINATES
11
AA
N      3.32600000     1.54800000    -0.00000000       1
H      3.90900000     0.72400000    -0.00000000       2
C      3.97000000     2.84600000    -0.00000000       3
H      3.67200000     3.40000000    -0.89000000       4
C      3.57700000     3.65400000     1.23200000       5
H      2.49700000     3.80100000     1.24100000       6
H      3.87700000     3.11600000     2.13100000       7
S      4.31000000     5.30400000     1.36600000       8
H      3.72500000     5.62200000     2.51800000       9
C      5.48600000     2.70500000    -0.00000000      10
O      6.00900000     1.59300000    -0.00000000      11
@MULTIPOLES
ORDER 0
11
1      -0.34127087
2       0.24064227
3      -0.02675497
4       0.14726079
5      -0.34559750
6       0.15530216
7       0.15530216
8      -0.23556553
9       0.17562541
10      0.56621724
11     -0.49116116
@POLARIZABILITIES
ORDER 1 1
11
1       7.42410041     0.00000000     0.00000000     7.42410041     0.00000000     7.42410041
2       1.19328818     0.00000000     0.00000000     1.19328818     0.00000000     1.19328818
3       8.73316138     0.00000000     0.00000000     8.73316138     0.00000000     8.73316138
4       1.57241404     0.00000000     0.00000000     1.57241404     0.00000000     1.57241404
5       9.12246860     0.00000000     0.00000000     9.12246860     0.00000000     9.12246860
6       1.36123553     0.00000000     0.00000000     1.36123553     0.00000000     1.36123553
7       1.36123553     0.00000000     0.00000000     1.36123553     0.00000000     1.36123553
8      18.43659635     0.00000000     0.00000000    18.43659635     0.00000000    18.43659635
9       2.79347951     0.00000000     0.00000000     2.79347951     0.00000000     2.79347951
10      8.13030200     0.00000000     0.00000000     8.13030200     0.00000000     8.13030200
11      5.68846433     0.00000000     0.00000000     5.68846433     0.00000000     5.68846433
EXCLISTS
11 11
1     2   3   4   5   6   7   8   9  10  11
2     1   3   4   5   6   7   8   9  10  11
3     1   2   4   5   6   7   8   9  10  11
4     1   2   3   5   6   7   8   9  10  11
5     1   2   3   4   6   7   8   9  10  11
6     1   2   3   4   5   7   8   9  10  11
7     1   2   3   4   5   6   8   9  10  11
8     1   2   3   4   5   6   7   9  10  11
9     1   2   3   4   5   6   7   8  10  11
10    1   2   3   4   5   6   7   8   9  11
11    1   2   3   4   5   6   7   8   9  10
